%YAML 1.1
%TAG !u! tag:unity3d.com,2011:
--- !u!1 &6122942362830025320
GameObject:
  m_ObjectHideFlags: 0
  m_CorrespondingSourceObject: {fileID: 0}
  m_PrefabInstance: {fileID: 0}
  m_PrefabAsset: {fileID: 0}
  serializedVersion: 6
  m_Component:
  - component: {fileID: 6122942362830025322}
  - component: {fileID: 6122942362830025321}
  m_Layer: 0
  m_Name: GameObject
  m_TagString: Untagged
  m_Icon: {fileID: 0}
  m_NavMeshLayer: 0
  m_StaticEditorFlags: 0
  m_IsActive: 1
--- !u!4 &6122942362830025322
Transform:
  m_ObjectHideFlags: 0
  m_CorrespondingSourceObject: {fileID: 0}
  m_PrefabInstance: {fileID: 0}
  m_PrefabAsset: {fileID: 0}
  m_GameObject: {fileID: 6122942362830025320}
  m_LocalRotation: {x: 0, y: 0, z: 0, w: 1}
  m_LocalPosition: {x: 613.09235, y: 242.79468, z: 11.420227}
  m_LocalScale: {x: 1, y: 1, z: 1}
  m_Children: []
  m_Father: {fileID: 0}
  m_RootOrder: 0
  m_LocalEulerAnglesHint: {x: 0, y: 0, z: 0}
--- !u!114 &6122942362830025321
MonoBehaviour:
  m_ObjectHideFlags: 0
  m_CorrespondingSourceObject: {fileID: 0}
  m_PrefabInstance: {fileID: 0}
  m_PrefabAsset: {fileID: 0}
  m_GameObject: {fileID: 6122942362830025320}
  m_Enabled: 1
  m_EditorHideFlags: 0
  m_Script: {fileID: 11500000, guid: c95e3750c353fd64aacddf8752f0736f, type: 3}
  m_Name: 
  m_EditorClassIdentifier: 
  currentHP: 0
  currentMP: 0
  currentLevel: 0
  baseLevel: 1
  baseATK: 0
  baseDef: 0
  totalAtk: 0
  totalDef: 0
  baseHP: 200
  baseMP: 100
  hpBar: {fileID: 0}
  mpBar: {fileID: 0}
  levelUp: 0
