%YAML 1.1
%TAG !u! tag:unity3d.com,2011:
--- !u!1 &292152584988077736
GameObject:
  m_ObjectHideFlags: 0
  m_CorrespondingSourceObject: {fileID: 0}
  m_PrefabInstance: {fileID: 0}
  m_PrefabAsset: {fileID: 0}
  serializedVersion: 6
  m_Component:
  - component: {fileID: 8946314550846146408}
  m_Layer: 0
  m_Name: PT_Medieval_Male_Small_Shield_slot
  m_TagString: Untagged
  m_Icon: {fileID: 0}
  m_NavMeshLayer: 0
  m_StaticEditorFlags: 0
  m_IsActive: 1
--- !u!4 &8946314550846146408
Transform:
  m_ObjectHideFlags: 0
  m_CorrespondingSourceObject: {fileID: 0}
  m_PrefabInstance: {fileID: 0}
  m_PrefabAsset: {fileID: 0}
  m_GameObject: {fileID: 292152584988077736}
  m_LocalRotation: {x: 0.71049285, y: 0.6963923, z: 0.076266795, w: -0.066491}
  m_LocalPosition: {x: -0.008307498, y: 0.34597677, z: 0.002939763}
  m_LocalScale: {x: 1, y: 1, z: 1}
  m_Children: []
  m_Father: {fileID: 7107152472988035247}
  m_RootOrder: 4
  m_LocalEulerAnglesHint: {x: 0, y: 0, z: 0}
--- !u!1 &310613545009389287
GameObject:
  m_ObjectHideFlags: 0
  m_CorrespondingSourceObject: {fileID: 0}
  m_PrefabInstance: {fileID: 0}
  m_PrefabAsset: {fileID: 0}
  serializedVersion: 6
  m_Component:
  - component: {fileID: 1050769216725836808}
  m_Layer: 0
  m_Name: PT_Medieval_Male_RightLeg
  m_TagString: Untagged
  m_Icon: {fileID: 0}
  m_NavMeshLayer: 0
  m_StaticEditorFlags: 0
  m_IsActive: 1
--- !u!4 &1050769216725836808
Transform:
  m_ObjectHideFlags: 0
  m_CorrespondingSourceObject: {fileID: 0}
  m_PrefabInstance: {fileID: 0}
  m_PrefabAsset: {fileID: 0}
  m_GameObject: {fileID: 310613545009389287}
  m_LocalRotation: {x: -0.019684935, y: 0.0006116889, z: -0.031052949, w: 0.9993237}
  m_LocalPosition: {x: -0.0025030198, y: 0.4204197, z: 0.005846788}
  m_LocalScale: {x: 1, y: 1, z: 1}
  m_Children:
  - {fileID: 5951413753473552764}
  m_Father: {fileID: 8034860563553262300}
  m_RootOrder: 0
  m_LocalEulerAnglesHint: {x: 0, y: 0, z: 0}
--- !u!1 &569028886546308217
GameObject:
  m_ObjectHideFlags: 0
  m_CorrespondingSourceObject: {fileID: 0}
  m_PrefabInstance: {fileID: 0}
  m_PrefabAsset: {fileID: 0}
  serializedVersion: 6
  m_Component:
  - component: {fileID: 4247205578813393930}
  m_Layer: 0
  m_Name: PT_Medieval_Male_Right_Hand_Weapon_slot
  m_TagString: Untagged
  m_Icon: {fileID: 0}
  m_NavMeshLayer: 0
  m_StaticEditorFlags: 0
  m_IsActive: 1
--- !u!4 &4247205578813393930
Transform:
  m_ObjectHideFlags: 0
  m_CorrespondingSourceObject: {fileID: 0}
  m_PrefabInstance: {fileID: 0}
  m_PrefabAsset: {fileID: 0}
  m_GameObject: {fileID: 569028886546308217}
  m_LocalRotation: {x: 0.6502353, y: 0.7249252, z: -0.18280269, w: 0.13513213}
  m_LocalPosition: {x: -0.0193496, y: -0.099109754, z: -0.02339942}
  m_LocalScale: {x: 1, y: 1, z: 1}
  m_Children: []
  m_Father: {fileID: 1441933759282123437}
  m_RootOrder: 0
  m_LocalEulerAnglesHint: {x: 0, y: 0, z: 0}
--- !u!1 &616716705887906230
GameObject:
  m_ObjectHideFlags: 0
  m_CorrespondingSourceObject: {fileID: 0}
  m_PrefabInstance: {fileID: 0}
  m_PrefabAsset: {fileID: 0}
  serializedVersion: 6
  m_Component:
  - component: {fileID: 7165733193108801435}
  m_Layer: 0
  m_Name: PT_Medieval_Male_Head
  m_TagString: Untagged
  m_Icon: {fileID: 0}
  m_NavMeshLayer: 0
  m_StaticEditorFlags: 0
  m_IsActive: 1
--- !u!4 &7165733193108801435
Transform:
  m_ObjectHideFlags: 0
  m_CorrespondingSourceObject: {fileID: 0}
  m_PrefabInstance: {fileID: 0}
  m_PrefabAsset: {fileID: 0}
  m_GameObject: {fileID: 616716705887906230}
  m_LocalRotation: {x: 0, y: -0, z: -0, w: 1}
  m_LocalPosition: {x: -0, y: 0.09119416, z: 0.024500811}
  m_LocalScale: {x: 1, y: 1, z: 1}
  m_Children:
  - {fileID: 9065392670172053777}
  m_Father: {fileID: 2083908462879253995}
  m_RootOrder: 0
  m_LocalEulerAnglesHint: {x: 0, y: 0, z: 0}
--- !u!1 &1150120513409536068
GameObject:
  m_ObjectHideFlags: 0
  m_CorrespondingSourceObject: {fileID: 0}
  m_PrefabInstance: {fileID: 0}
  m_PrefabAsset: {fileID: 0}
  serializedVersion: 6
  m_Component:
  - component: {fileID: 758512460691861090}
  m_Layer: 0
  m_Name: PT_Medieval_Male_Medium_Shield_slot
  m_TagString: Untagged
  m_Icon: {fileID: 0}
  m_NavMeshLayer: 0
  m_StaticEditorFlags: 0
  m_IsActive: 1
--- !u!4 &758512460691861090
Transform:
  m_ObjectHideFlags: 0
  m_CorrespondingSourceObject: {fileID: 0}
  m_PrefabInstance: {fileID: 0}
  m_PrefabAsset: {fileID: 0}
  m_GameObject: {fileID: 1150120513409536068}
  m_LocalRotation: {x: 0.70922714, y: 0.6900211, z: 0.14373127, w: 0.014462725}
  m_LocalPosition: {x: 0.00076269294, y: 0.35668078, z: -0.003686358}
  m_LocalScale: {x: 1, y: 1, z: 1}
  m_Children: []
  m_Father: {fileID: 7107152472988035247}
  m_RootOrder: 3
  m_LocalEulerAnglesHint: {x: 0, y: 0, z: 0}
--- !u!1 &1201106216262598359
GameObject:
  m_ObjectHideFlags: 0
  m_CorrespondingSourceObject: {fileID: 0}
  m_PrefabInstance: {fileID: 0}
  m_PrefabAsset: {fileID: 0}
  serializedVersion: 6
  m_Component:
  - component: {fileID: 75667518262404879}
  m_Layer: 0
  m_Name: PT_Medieval_Male_RightCape3
  m_TagString: Untagged
  m_Icon: {fileID: 0}
  m_NavMeshLayer: 0
  m_StaticEditorFlags: 0
  m_IsActive: 1
--- !u!4 &75667518262404879
Transform:
  m_ObjectHideFlags: 0
  m_CorrespondingSourceObject: {fileID: 0}
  m_PrefabInstance: {fileID: 0}
  m_PrefabAsset: {fileID: 0}
  m_GameObject: {fileID: 1201106216262598359}
  m_LocalRotation: {x: 0, y: -0, z: -0, w: 1}
  m_LocalPosition: {x: 0.005683145, y: -0.35933653, z: -0.0360173}
  m_LocalScale: {x: 1, y: 1, z: 1}
  m_Children:
  - {fileID: 5903162699863436279}
  m_Father: {fileID: 2227139462160096108}
  m_RootOrder: 0
  m_LocalEulerAnglesHint: {x: 0, y: 0, z: 0}
--- !u!1 &1289597650157203212
GameObject:
  m_ObjectHideFlags: 0
  m_CorrespondingSourceObject: {fileID: 0}
  m_PrefabInstance: {fileID: 0}
  m_PrefabAsset: {fileID: 0}
  serializedVersion: 6
  m_Component:
  - component: {fileID: 3467435945612739511}
  m_Layer: 0
  m_Name: PT_Medieval_Male_LeftArm
  m_TagString: Untagged
  m_Icon: {fileID: 0}
  m_NavMeshLayer: 0
  m_StaticEditorFlags: 0
  m_IsActive: 1
--- !u!4 &3467435945612739511
Transform:
  m_ObjectHideFlags: 0
  m_CorrespondingSourceObject: {fileID: 0}
  m_PrefabInstance: {fileID: 0}
  m_PrefabAsset: {fileID: 0}
  m_GameObject: {fileID: 1289597650157203212}
  m_LocalRotation: {x: -0.037783094, y: -0.00013922794, z: 0.0036822709, w: 0.9992792}
  m_LocalPosition: {x: 0.0030670508, y: 0.1171589, z: -0.02757852}
  m_LocalScale: {x: 1, y: 1, z: 1}
  m_Children:
  - {fileID: 7107152472988035247}
  m_Father: {fileID: 5796227136301442986}
  m_RootOrder: 0
  m_LocalEulerAnglesHint: {x: 0, y: 0, z: 0}
--- !u!1 &1293312015288793811
GameObject:
  m_ObjectHideFlags: 0
  m_CorrespondingSourceObject: {fileID: 0}
  m_PrefabInstance: {fileID: 0}
  m_PrefabAsset: {fileID: 0}
  serializedVersion: 6
  m_Component:
  - component: {fileID: 2213934051885706106}
  m_Layer: 0
  m_Name: PT_Medieval_Male_Spine
  m_TagString: Untagged
  m_Icon: {fileID: 0}
  m_NavMeshLayer: 0
  m_StaticEditorFlags: 0
  m_IsActive: 1
--- !u!4 &2213934051885706106
Transform:
  m_ObjectHideFlags: 0
  m_CorrespondingSourceObject: {fileID: 0}
  m_PrefabInstance: {fileID: 0}
  m_PrefabAsset: {fileID: 0}
  m_GameObject: {fileID: 1293312015288793811}
  m_LocalRotation: {x: -0.054553226, y: 0, z: -0, w: 0.9985109}
  m_LocalPosition: {x: -0, y: 0.083521955, z: -0.007203121}
  m_LocalScale: {x: 1, y: 1, z: 1}
  m_Children:
  - {fileID: 8838077119061227895}
  m_Father: {fileID: 1938258143868302625}
  m_RootOrder: 2
  m_LocalEulerAnglesHint: {x: 0, y: 0, z: 0}
--- !u!1 &1325634672735213479
GameObject:
  m_ObjectHideFlags: 0
  m_CorrespondingSourceObject: {fileID: 0}
  m_PrefabInstance: {fileID: 0}
  m_PrefabAsset: {fileID: 0}
  serializedVersion: 6
  m_Component:
  - component: {fileID: 1072956195028648943}
  m_Layer: 0
  m_Name: PT_Medieval_Male_LeftHandThumb1
  m_TagString: Untagged
  m_Icon: {fileID: 0}
  m_NavMeshLayer: 0
  m_StaticEditorFlags: 0
  m_IsActive: 1
--- !u!4 &1072956195028648943
Transform:
  m_ObjectHideFlags: 0
  m_CorrespondingSourceObject: {fileID: 0}
  m_PrefabInstance: {fileID: 0}
  m_PrefabAsset: {fileID: 0}
  m_GameObject: {fileID: 1325634672735213479}
  m_LocalRotation: {x: 0.16680421, y: -0.049394064, z: -0.27960357, w: 0.94422376}
  m_LocalPosition: {x: 0.03964193, y: 0.03202919, z: 0.017623939}
  m_LocalScale: {x: 1, y: 1, z: 1}
  m_Children:
  - {fileID: 4537286263251977066}
  m_Father: {fileID: 1899237481613579145}
  m_RootOrder: 4
  m_LocalEulerAnglesHint: {x: 0, y: 0, z: 0}
--- !u!1 &1756391924456301586
GameObject:
  m_ObjectHideFlags: 0
  m_CorrespondingSourceObject: {fileID: 0}
  m_PrefabInstance: {fileID: 0}
  m_PrefabAsset: {fileID: 0}
  serializedVersion: 6
  m_Component:
  - component: {fileID: 2919075953274030280}
  m_Layer: 0
  m_Name: PT_Medieval_Male_LeftHandPinky3
  m_TagString: Untagged
  m_Icon: {fileID: 0}
  m_NavMeshLayer: 0
  m_StaticEditorFlags: 0
  m_IsActive: 1
--- !u!4 &2919075953274030280
Transform:
  m_ObjectHideFlags: 0
  m_CorrespondingSourceObject: {fileID: 0}
  m_PrefabInstance: {fileID: 0}
  m_PrefabAsset: {fileID: 0}
  m_GameObject: {fileID: 1756391924456301586}
  m_LocalRotation: {x: -0.011456637, y: 1.7489206e-18, z: 4.439721e-28, w: 0.9999344}
  m_LocalPosition: {x: 0.0017718279, y: 0.02494427, z: -0.002165765}
  m_LocalScale: {x: 1, y: 1, z: 1}
  m_Children: []
  m_Father: {fileID: 1313490858972263176}
  m_RootOrder: 0
  m_LocalEulerAnglesHint: {x: 0, y: 0, z: 0}
--- !u!1 &1978612671632359973
GameObject:
  m_ObjectHideFlags: 0
  m_CorrespondingSourceObject: {fileID: 0}
  m_PrefabInstance: {fileID: 0}
  m_PrefabAsset: {fileID: 0}
  serializedVersion: 6
  m_Component:
  - component: {fileID: 8034860563553262300}
  m_Layer: 0
  m_Name: PT_Medieval_Male_RightUpLeg
  m_TagString: Untagged
  m_Icon: {fileID: 0}
  m_NavMeshLayer: 0
  m_StaticEditorFlags: 0
  m_IsActive: 1
--- !u!4 &8034860563553262300
Transform:
  m_ObjectHideFlags: 0
  m_CorrespondingSourceObject: {fileID: 0}
  m_PrefabInstance: {fileID: 0}
  m_PrefabAsset: {fileID: 0}
  m_GameObject: {fileID: 1978612671632359973}
  m_LocalRotation: {x: 0.0001680367, y: 0.0068344786, z: 0.99967456, w: -0.024578491}
  m_LocalPosition: {x: 0.07351148, y: -0.09832772, z: -0.0103433}
  m_LocalScale: {x: 1, y: 1, z: 1}
  m_Children:
  - {fileID: 1050769216725836808}
  - {fileID: 2896417099342366386}
  m_Father: {fileID: 1938258143868302625}
  m_RootOrder: 1
  m_LocalEulerAnglesHint: {x: 0, y: 0, z: 0}
--- !u!1 &2098567687900391708
GameObject:
  m_ObjectHideFlags: 0
  m_CorrespondingSourceObject: {fileID: 0}
  m_PrefabInstance: {fileID: 0}
  m_PrefabAsset: {fileID: 0}
  serializedVersion: 6
  m_Component:
  - component: {fileID: 1232837664396209926}
  m_Layer: 0
  m_Name: PT_Medieval_Male_LeftCape
  m_TagString: Untagged
  m_Icon: {fileID: 0}
  m_NavMeshLayer: 0
  m_StaticEditorFlags: 0
  m_IsActive: 1
--- !u!4 &1232837664396209926
Transform:
  m_ObjectHideFlags: 0
  m_CorrespondingSourceObject: {fileID: 0}
  m_PrefabInstance: {fileID: 0}
  m_PrefabAsset: {fileID: 0}
  m_GameObject: {fileID: 2098567687900391708}
  m_LocalRotation: {x: 1, y: 0, z: 0, w: -6.123234e-17}
  m_LocalPosition: {x: -0.11146, y: 0.08650225, z: -0.14882876}
  m_LocalScale: {x: 1, y: 1, z: 1}
  m_Children:
  - {fileID: 2719996790561535148}
  m_Father: {fileID: 1072987915240726049}
  m_RootOrder: 0
  m_LocalEulerAnglesHint: {x: 0, y: 0, z: 0}
--- !u!1 &2279364838362343189
GameObject:
  m_ObjectHideFlags: 0
  m_CorrespondingSourceObject: {fileID: 0}
  m_PrefabInstance: {fileID: 0}
  m_PrefabAsset: {fileID: 0}
  serializedVersion: 6
  m_Component:
  - component: {fileID: 2494741598589357588}
  m_Layer: 0
  m_Name: PT_Medieval_Male_LeftHandPinky1
  m_TagString: Untagged
  m_Icon: {fileID: 0}
  m_NavMeshLayer: 0
  m_StaticEditorFlags: 0
  m_IsActive: 1
--- !u!4 &2494741598589357588
Transform:
  m_ObjectHideFlags: 0
  m_CorrespondingSourceObject: {fileID: 0}
  m_PrefabInstance: {fileID: 0}
  m_PrefabAsset: {fileID: 0}
  m_GameObject: {fileID: 2279364838362343189}
  m_LocalRotation: {x: 0.20583394, y: 0.007591522, z: 0.03606642, w: 0.97789264}
  m_LocalPosition: {x: -0.04289961, y: 0.094950385, z: -0.003127618}
  m_LocalScale: {x: 1, y: 1, z: 1}
  m_Children:
  - {fileID: 1313490858972263176}
  m_Father: {fileID: 1899237481613579145}
  m_RootOrder: 2
  m_LocalEulerAnglesHint: {x: 0, y: 0, z: 0}
--- !u!1 &2371628358253651733
GameObject:
  m_ObjectHideFlags: 0
  m_CorrespondingSourceObject: {fileID: 0}
  m_PrefabInstance: {fileID: 0}
  m_PrefabAsset: {fileID: 0}
  serializedVersion: 6
  m_Component:
  - component: {fileID: 68885027530652865}
  m_Layer: 0
  m_Name: PT_Medieval_Male_RightArm
  m_TagString: Untagged
  m_Icon: {fileID: 0}
  m_NavMeshLayer: 0
  m_StaticEditorFlags: 0
  m_IsActive: 1
--- !u!4 &68885027530652865
Transform:
  m_ObjectHideFlags: 0
  m_CorrespondingSourceObject: {fileID: 0}
  m_PrefabInstance: {fileID: 0}
  m_PrefabAsset: {fileID: 0}
  m_GameObject: {fileID: 2371628358253651733}
  m_LocalRotation: {x: -0.037783094, y: -0.00013922794, z: 0.0036822709, w: 0.9992792}
  m_LocalPosition: {x: -0.0030670508, y: -0.1171589, z: 0.02757852}
  m_LocalScale: {x: 1, y: 1, z: 1}
  m_Children:
  - {fileID: 5114048528780718263}
  m_Father: {fileID: 8794461944997976966}
  m_RootOrder: 0
  m_LocalEulerAnglesHint: {x: 0, y: 0, z: 0}
--- !u!1 &2415520850942012598
GameObject:
  m_ObjectHideFlags: 0
  m_CorrespondingSourceObject: {fileID: 0}
  m_PrefabInstance: {fileID: 0}
  m_PrefabAsset: {fileID: 0}
  serializedVersion: 6
  m_Component:
  - component: {fileID: 8838077119061227895}
  m_Layer: 0
  m_Name: PT_Medieval_Male_Spine2
  m_TagString: Untagged
  m_Icon: {fileID: 0}
  m_NavMeshLayer: 0
  m_StaticEditorFlags: 0
  m_IsActive: 1
--- !u!4 &8838077119061227895
Transform:
  m_ObjectHideFlags: 0
  m_CorrespondingSourceObject: {fileID: 0}
  m_PrefabInstance: {fileID: 0}
  m_PrefabAsset: {fileID: 0}
  m_GameObject: {fileID: 2415520850942012598}
  m_LocalRotation: {x: 0, y: -0, z: -0, w: 1}
  m_LocalPosition: {x: -0, y: 0.117735796, z: -0.003096688}
  m_LocalScale: {x: 1, y: 1, z: 1}
  m_Children:
  - {fileID: 1072987915240726049}
  m_Father: {fileID: 2213934051885706106}
  m_RootOrder: 0
  m_LocalEulerAnglesHint: {x: 0, y: 0, z: 0}
--- !u!1 &2555010689266857632
GameObject:
  m_ObjectHideFlags: 0
  m_CorrespondingSourceObject: {fileID: 0}
  m_PrefabInstance: {fileID: 0}
  m_PrefabAsset: {fileID: 0}
  serializedVersion: 6
  m_Component:
  - component: {fileID: 1441933759282123437}
  m_Layer: 0
  m_Name: PT_Medieval_Male_RightHand
  m_TagString: Untagged
  m_Icon: {fileID: 0}
  m_NavMeshLayer: 0
  m_StaticEditorFlags: 0
  m_IsActive: 1
--- !u!4 &1441933759282123437
Transform:
  m_ObjectHideFlags: 0
  m_CorrespondingSourceObject: {fileID: 0}
  m_PrefabInstance: {fileID: 0}
  m_PrefabAsset: {fileID: 0}
  m_GameObject: {fileID: 2555010689266857632}
  m_LocalRotation: {x: 0.023698647, y: 0.02361606, z: 0.047987882, w: 0.99828744}
  m_LocalPosition: {x: -0.0059546665, y: -0.2618944, z: -0.01294417}
  m_LocalScale: {x: 1, y: 1, z: 1}
  m_Children:
  - {fileID: 4247205578813393930}
  - {fileID: 60140218965175389}
  - {fileID: 9067571933725142066}
  - {fileID: 8722219391217300777}
  - {fileID: 1812888332891644609}
  - {fileID: 7690087476972658941}
  m_Father: {fileID: 5114048528780718263}
  m_RootOrder: 0
  m_LocalEulerAnglesHint: {x: 0, y: 0, z: 0}
--- !u!1 &2697479053780605099
GameObject:
  m_ObjectHideFlags: 0
  m_CorrespondingSourceObject: {fileID: 0}
  m_PrefabInstance: {fileID: 0}
  m_PrefabAsset: {fileID: 0}
  serializedVersion: 6
  m_Component:
  - component: {fileID: 1938258143868302625}
  m_Layer: 0
  m_Name: PT_Medieval_Male_Hips
  m_TagString: Untagged
  m_Icon: {fileID: 0}
  m_NavMeshLayer: 0
  m_StaticEditorFlags: 0
  m_IsActive: 1
--- !u!4 &1938258143868302625
Transform:
  m_ObjectHideFlags: 0
  m_CorrespondingSourceObject: {fileID: 0}
  m_PrefabInstance: {fileID: 0}
  m_PrefabAsset: {fileID: 0}
  m_GameObject: {fileID: 2697479053780605099}
  m_LocalRotation: {x: 0, y: -0, z: -0, w: 1}
  m_LocalPosition: {x: -0, y: 1.0312519, z: 0.01863602}
  m_LocalScale: {x: 1, y: 1, z: 1}
  m_Children:
  - {fileID: 2939016326458881785}
  - {fileID: 8034860563553262300}
  - {fileID: 2213934051885706106}
  m_Father: {fileID: 4838729760928824756}
  m_RootOrder: 0
  m_LocalEulerAnglesHint: {x: 0, y: 0, z: 0}
--- !u!1 &2805120727169029850
GameObject:
  m_ObjectHideFlags: 0
  m_CorrespondingSourceObject: {fileID: 0}
  m_PrefabInstance: {fileID: 0}
  m_PrefabAsset: {fileID: 0}
  serializedVersion: 6
  m_Component:
  - component: {fileID: 2067485018715366083}
  m_Layer: 0
  m_Name: PT_Medieval_Male_LeftHandMiddle2
  m_TagString: Untagged
  m_Icon: {fileID: 0}
  m_NavMeshLayer: 0
  m_StaticEditorFlags: 0
  m_IsActive: 1
--- !u!4 &2067485018715366083
Transform:
  m_ObjectHideFlags: 0
  m_CorrespondingSourceObject: {fileID: 0}
  m_PrefabInstance: {fileID: 0}
  m_PrefabAsset: {fileID: 0}
  m_GameObject: {fileID: 2805120727169029850}
  m_LocalRotation: {x: 0.1192209, y: -1.8199744e-17, z: 2.97814e-17, w: 0.99286777}
  m_LocalPosition: {x: -0.001068698, y: 0.04306795, z: -0.001119482}
  m_LocalScale: {x: 1, y: 1, z: 1}
  m_Children:
  - {fileID: 2028020971456363666}
  m_Father: {fileID: 4697289132854034157}
  m_RootOrder: 0
  m_LocalEulerAnglesHint: {x: 0, y: 0, z: 0}
--- !u!1 &2916102222066781676
GameObject:
  m_ObjectHideFlags: 0
  m_CorrespondingSourceObject: {fileID: 0}
  m_PrefabInstance: {fileID: 0}
  m_PrefabAsset: {fileID: 0}
  serializedVersion: 6
  m_Component:
  - component: {fileID: 8994295638053101437}
  m_Layer: 0
  m_Name: PT_Medieval_Male_LeftHandRing1
  m_TagString: Untagged
  m_Icon: {fileID: 0}
  m_NavMeshLayer: 0
  m_StaticEditorFlags: 0
  m_IsActive: 1
--- !u!4 &8994295638053101437
Transform:
  m_ObjectHideFlags: 0
  m_CorrespondingSourceObject: {fileID: 0}
  m_PrefabInstance: {fileID: 0}
  m_PrefabAsset: {fileID: 0}
  m_GameObject: {fileID: 2916102222066781676}
  m_LocalRotation: {x: 0.1255726, y: -0.009746213, z: -0.076765224, w: 0.989062}
  m_LocalPosition: {x: -0.020498829, y: 0.10116939, z: -0.009756999}
  m_LocalScale: {x: 1, y: 1, z: 1}
  m_Children:
  - {fileID: 8181709867746393275}
  m_Father: {fileID: 1899237481613579145}
  m_RootOrder: 3
  m_LocalEulerAnglesHint: {x: 0, y: 0, z: 0}
--- !u!1 &2990837792726992611
GameObject:
  m_ObjectHideFlags: 0
  m_CorrespondingSourceObject: {fileID: 0}
  m_PrefabInstance: {fileID: 0}
  m_PrefabAsset: {fileID: 0}
  serializedVersion: 6
  m_Component:
  - component: {fileID: 2719996790561535148}
  m_Layer: 0
  m_Name: PT_Medieval_Male_LeftCape2
  m_TagString: Untagged
  m_Icon: {fileID: 0}
  m_NavMeshLayer: 0
  m_StaticEditorFlags: 0
  m_IsActive: 1
--- !u!4 &2719996790561535148
Transform:
  m_ObjectHideFlags: 0
  m_CorrespondingSourceObject: {fileID: 0}
  m_PrefabInstance: {fileID: 0}
  m_PrefabAsset: {fileID: 0}
  m_GameObject: {fileID: 2990837792726992611}
  m_LocalRotation: {x: 0, y: -0, z: -0, w: 1}
  m_LocalPosition: {x: 0.00825, y: 0.36404753, z: 0.04708202}
  m_LocalScale: {x: 1, y: 1, z: 1}
  m_Children:
  - {fileID: 1233032819600758446}
  m_Father: {fileID: 1232837664396209926}
  m_RootOrder: 0
  m_LocalEulerAnglesHint: {x: 0, y: 0, z: 0}
--- !u!1 &3162735645598558126
GameObject:
  m_ObjectHideFlags: 0
  m_CorrespondingSourceObject: {fileID: 0}
  m_PrefabInstance: {fileID: 0}
  m_PrefabAsset: {fileID: 0}
  serializedVersion: 6
  m_Component:
  - component: {fileID: 2028020971456363666}
  m_Layer: 0
  m_Name: PT_Medieval_Male_LeftHandMiddle3
  m_TagString: Untagged
  m_Icon: {fileID: 0}
  m_NavMeshLayer: 0
  m_StaticEditorFlags: 0
  m_IsActive: 1
--- !u!4 &2028020971456363666
Transform:
  m_ObjectHideFlags: 0
  m_CorrespondingSourceObject: {fileID: 0}
  m_PrefabInstance: {fileID: 0}
  m_PrefabAsset: {fileID: 0}
  m_GameObject: {fileID: 3162735645598558126}
  m_LocalRotation: {x: 0.045742027, y: -2.5391926e-18, z: 1.3965558e-17, w: 0.9989533}
  m_LocalPosition: {x: -0.002373535, y: 0.03550315, z: 0.0069762617}
  m_LocalScale: {x: 1, y: 1, z: 1}
  m_Children: []
  m_Father: {fileID: 2067485018715366083}
  m_RootOrder: 0
  m_LocalEulerAnglesHint: {x: 0, y: 0, z: 0}
--- !u!1 &3571320034192525354
GameObject:
  m_ObjectHideFlags: 0
  m_CorrespondingSourceObject: {fileID: 0}
  m_PrefabInstance: {fileID: 0}
  m_PrefabAsset: {fileID: 0}
  serializedVersion: 6
  m_Component:
  - component: {fileID: 5252675849936356531}
  m_Layer: 0
  m_Name: PT_Medieval_Male_LeftHandRing3
  m_TagString: Untagged
  m_Icon: {fileID: 0}
  m_NavMeshLayer: 0
  m_StaticEditorFlags: 0
  m_IsActive: 1
--- !u!4 &5252675849936356531
Transform:
  m_ObjectHideFlags: 0
  m_CorrespondingSourceObject: {fileID: 0}
  m_PrefabInstance: {fileID: 0}
  m_PrefabAsset: {fileID: 0}
  m_GameObject: {fileID: 3571320034192525354}
  m_LocalRotation: {x: 0.041252065, y: -2.2899499e-18, z: 1.2594722e-17, w: 0.9991488}
  m_LocalPosition: {x: -0.003418394, y: 0.036755748, z: 0.003168397}
  m_LocalScale: {x: 1, y: 1, z: 1}
  m_Children: []
  m_Father: {fileID: 8181709867746393275}
  m_RootOrder: 0
  m_LocalEulerAnglesHint: {x: 0, y: 0, z: 0}
--- !u!1 &3622678117586108327
GameObject:
  m_ObjectHideFlags: 0
  m_CorrespondingSourceObject: {fileID: 0}
  m_PrefabInstance: {fileID: 0}
  m_PrefabAsset: {fileID: 0}
  serializedVersion: 6
  m_Component:
  - component: {fileID: 741901621801399933}
  m_Layer: 0
  m_Name: PT_Medieval_Male_RightHandPinky3
  m_TagString: Untagged
  m_Icon: {fileID: 0}
  m_NavMeshLayer: 0
  m_StaticEditorFlags: 0
  m_IsActive: 1
--- !u!4 &741901621801399933
Transform:
  m_ObjectHideFlags: 0
  m_CorrespondingSourceObject: {fileID: 0}
  m_PrefabInstance: {fileID: 0}
  m_PrefabAsset: {fileID: 0}
  m_GameObject: {fileID: 3622678117586108327}
  m_LocalRotation: {x: -0.011456637, y: -1.1129494e-18, z: -7.313668e-18, w: 0.9999344}
  m_LocalPosition: {x: -0.0017718279, y: -0.02494427, z: 0.002165765}
  m_LocalScale: {x: 1, y: 1, z: 1}
  m_Children: []
  m_Father: {fileID: 5141777383860995727}
  m_RootOrder: 0
  m_LocalEulerAnglesHint: {x: 0, y: 0, z: 0}
--- !u!1 &4409723851308429405
GameObject:
  m_ObjectHideFlags: 0
  m_CorrespondingSourceObject: {fileID: 0}
  m_PrefabInstance: {fileID: 0}
  m_PrefabAsset: {fileID: 0}
  serializedVersion: 6
  m_Component:
  - component: {fileID: 8181709867746393275}
  m_Layer: 0
  m_Name: PT_Medieval_Male_LeftHandRing2
  m_TagString: Untagged
  m_Icon: {fileID: 0}
  m_NavMeshLayer: 0
  m_StaticEditorFlags: 0
  m_IsActive: 1
--- !u!4 &8181709867746393275
Transform:
  m_ObjectHideFlags: 0
  m_CorrespondingSourceObject: {fileID: 0}
  m_PrefabInstance: {fileID: 0}
  m_PrefabAsset: {fileID: 0}
  m_GameObject: {fileID: 4409723851308429405}
  m_LocalRotation: {x: 0.047358062, y: -3.943351e-18, z: 1.4458953e-17, w: 0.998878}
  m_LocalPosition: {x: -0.00445843, y: 0.04005795, z: -0.0016473439}
  m_LocalScale: {x: 1, y: 1, z: 1}
  m_Children:
  - {fileID: 5252675849936356531}
  m_Father: {fileID: 8994295638053101437}
  m_RootOrder: 0
  m_LocalEulerAnglesHint: {x: 0, y: 0, z: 0}
--- !u!1 &4712778335673519588
GameObject:
  m_ObjectHideFlags: 0
  m_CorrespondingSourceObject: {fileID: 0}
  m_PrefabInstance: {fileID: 0}
  m_PrefabAsset: {fileID: 0}
  serializedVersion: 6
  m_Component:
  - component: {fileID: 4789964776914104474}
  m_Layer: 0
  m_Name: PT_Medieval_Male_Left_Hand_Weapon_slot
  m_TagString: Untagged
  m_Icon: {fileID: 0}
  m_NavMeshLayer: 0
  m_StaticEditorFlags: 0
  m_IsActive: 1
--- !u!4 &4789964776914104474
Transform:
  m_ObjectHideFlags: 0
  m_CorrespondingSourceObject: {fileID: 0}
  m_PrefabInstance: {fileID: 0}
  m_PrefabAsset: {fileID: 0}
  m_GameObject: {fileID: 4712778335673519588}
  m_LocalRotation: {x: -0.17130926, y: 0.18552162, z: 0.7135279, w: 0.65353864}
  m_LocalPosition: {x: 0.01811957, y: 0.3645287, z: 0.023123268}
  m_LocalScale: {x: 1, y: 1, z: 1}
  m_Children: []
  m_Father: {fileID: 7107152472988035247}
  m_RootOrder: 1
  m_LocalEulerAnglesHint: {x: 0, y: 0, z: 0}
--- !u!1 &4737885846613338225
GameObject:
  m_ObjectHideFlags: 0
  m_CorrespondingSourceObject: {fileID: 0}
  m_PrefabInstance: {fileID: 0}
  m_PrefabAsset: {fileID: 0}
  serializedVersion: 6
  m_Component:
  - component: {fileID: 1313490858972263176}
  m_Layer: 0
  m_Name: PT_Medieval_Male_LeftHandPinky2
  m_TagString: Untagged
  m_Icon: {fileID: 0}
  m_NavMeshLayer: 0
  m_StaticEditorFlags: 0
  m_IsActive: 1
--- !u!4 &1313490858972263176
Transform:
  m_ObjectHideFlags: 0
  m_CorrespondingSourceObject: {fileID: 0}
  m_PrefabInstance: {fileID: 0}
  m_PrefabAsset: {fileID: 0}
  m_GameObject: {fileID: 4737885846613338225}
  m_LocalRotation: {x: -0.08476753, y: 9.999279e-18, z: -4.7055435e-18, w: 0.9964008}
  m_LocalPosition: {x: 0.000749904, y: 0.028182639, z: -0.01020375}
  m_LocalScale: {x: 1, y: 1, z: 1}
  m_Children:
  - {fileID: 2919075953274030280}
  m_Father: {fileID: 2494741598589357588}
  m_RootOrder: 0
  m_LocalEulerAnglesHint: {x: 0, y: 0, z: 0}
--- !u!1 &4798692439321397590
GameObject:
  m_ObjectHideFlags: 0
  m_CorrespondingSourceObject: {fileID: 0}
  m_PrefabInstance: {fileID: 0}
  m_PrefabAsset: {fileID: 0}
  serializedVersion: 6
  m_Component:
  - component: {fileID: 7690087476972658941}
  m_Layer: 0
  m_Name: PT_Medieval_Male_RightHandThumb1
  m_TagString: Untagged
  m_Icon: {fileID: 0}
  m_NavMeshLayer: 0
  m_StaticEditorFlags: 0
  m_IsActive: 1
--- !u!4 &7690087476972658941
Transform:
  m_ObjectHideFlags: 0
  m_CorrespondingSourceObject: {fileID: 0}
  m_PrefabInstance: {fileID: 0}
  m_PrefabAsset: {fileID: 0}
  m_GameObject: {fileID: 4798692439321397590}
  m_LocalRotation: {x: 0.16680421, y: -0.049394064, z: -0.27960357, w: 0.94422376}
  m_LocalPosition: {x: -0.03964193, y: -0.03202919, z: -0.017623939}
  m_LocalScale: {x: 1, y: 1, z: 1}
  m_Children:
  - {fileID: 5449621038571580251}
  m_Father: {fileID: 1441933759282123437}
  m_RootOrder: 5
  m_LocalEulerAnglesHint: {x: 0, y: 0, z: 0}
--- !u!1 &4835939279599895781
GameObject:
  m_ObjectHideFlags: 0
  m_CorrespondingSourceObject: {fileID: 0}
  m_PrefabInstance: {fileID: 0}
  m_PrefabAsset: {fileID: 0}
  serializedVersion: 6
  m_Component:
  - component: {fileID: 1048202198342786474}
  m_Layer: 0
  m_Name: PT_Medieval_Male_RightHandMiddle3
  m_TagString: Untagged
  m_Icon: {fileID: 0}
  m_NavMeshLayer: 0
  m_StaticEditorFlags: 0
  m_IsActive: 1
--- !u!4 &1048202198342786474
Transform:
  m_ObjectHideFlags: 0
  m_CorrespondingSourceObject: {fileID: 0}
  m_PrefabInstance: {fileID: 0}
  m_PrefabAsset: {fileID: 0}
  m_GameObject: {fileID: 4835939279599895781}
  m_LocalRotation: {x: 0.045742027, y: 5.078385e-18, z: -2.5391925e-17, w: 0.9989533}
  m_LocalPosition: {x: 0.002373535, y: -0.03550315, z: -0.0069762617}
  m_LocalScale: {x: 1, y: 1, z: 1}
  m_Children: []
  m_Father: {fileID: 8458283327961498755}
  m_RootOrder: 0
  m_LocalEulerAnglesHint: {x: 0, y: 0, z: 0}
--- !u!1 &4932277833991403490
GameObject:
  m_ObjectHideFlags: 0
  m_CorrespondingSourceObject: {fileID: 0}
  m_PrefabInstance: {fileID: 0}
  m_PrefabAsset: {fileID: 0}
  serializedVersion: 6
  m_Component:
  - component: {fileID: 4280079281931755176}
  m_Layer: 0
  m_Name: PT_Medieval_Male_RightHandRing2
  m_TagString: Untagged
  m_Icon: {fileID: 0}
  m_NavMeshLayer: 0
  m_StaticEditorFlags: 0
  m_IsActive: 1
--- !u!4 &4280079281931755176
Transform:
  m_ObjectHideFlags: 0
  m_CorrespondingSourceObject: {fileID: 0}
  m_PrefabInstance: {fileID: 0}
  m_PrefabAsset: {fileID: 0}
  m_GameObject: {fileID: 4932277833991403490}
  m_LocalRotation: {x: 0.047358062, y: -2.7603457e-17, z: -1.8402305e-17, w: 0.998878}
  m_LocalPosition: {x: 0.00445843, y: -0.04005795, z: 0.0016473439}
  m_LocalScale: {x: 1, y: 1, z: 1}
  m_Children:
  - {fileID: 8257999770298833228}
  m_Father: {fileID: 1812888332891644609}
  m_RootOrder: 0
  m_LocalEulerAnglesHint: {x: 0, y: 0, z: 0}
--- !u!1 &4962864405364482454
GameObject:
  m_ObjectHideFlags: 0
  m_CorrespondingSourceObject: {fileID: 0}
  m_PrefabInstance: {fileID: 0}
  m_PrefabAsset: {fileID: 0}
  serializedVersion: 6
  m_Component:
  - component: {fileID: 4473650482956046587}
  - component: {fileID: 6430812830992272982}
  m_Layer: 0
  m_Name: PT_Medieval_Male_Naked_lower
  m_TagString: Untagged
  m_Icon: {fileID: 0}
  m_NavMeshLayer: 0
  m_StaticEditorFlags: 0
  m_IsActive: 1
--- !u!4 &4473650482956046587
Transform:
  m_ObjectHideFlags: 0
  m_CorrespondingSourceObject: {fileID: 0}
  m_PrefabInstance: {fileID: 0}
  m_PrefabAsset: {fileID: 0}
  m_GameObject: {fileID: 4962864405364482454}
  m_LocalRotation: {x: 0, y: -0, z: -0, w: 1}
  m_LocalPosition: {x: -0, y: 0, z: 0}
  m_LocalScale: {x: 1, y: 1, z: 1}
  m_Children: []
  m_Father: {fileID: 4838729760928824756}
  m_RootOrder: 2
  m_LocalEulerAnglesHint: {x: 0, y: 0, z: 0}
--- !u!137 &6430812830992272982
SkinnedMeshRenderer:
  m_ObjectHideFlags: 0
  m_CorrespondingSourceObject: {fileID: 0}
  m_PrefabInstance: {fileID: 0}
  m_PrefabAsset: {fileID: 0}
  m_GameObject: {fileID: 4962864405364482454}
  m_Enabled: 1
  m_CastShadows: 1
  m_ReceiveShadows: 1
  m_DynamicOccludee: 1
  m_MotionVectors: 1
  m_LightProbeUsage: 1
  m_ReflectionProbeUsage: 1
  m_RayTracingMode: 0
  m_RenderingLayerMask: 1
  m_RendererPriority: 0
  m_Materials:
  - {fileID: 2100000, guid: c79855c6f54ed954293d041acc3120a8, type: 2}
  m_StaticBatchInfo:
    firstSubMesh: 0
    subMeshCount: 0
  m_StaticBatchRoot: {fileID: 0}
  m_ProbeAnchor: {fileID: 0}
  m_LightProbeVolumeOverride: {fileID: 0}
  m_ScaleInLightmap: 1
  m_ReceiveGI: 1
  m_PreserveUVs: 0
  m_IgnoreNormalsForChartDetection: 0
  m_ImportantGI: 0
  m_StitchLightmapSeams: 1
  m_SelectedEditorRenderState: 3
  m_MinimumChartSize: 4
  m_AutoUVMaxDistance: 0.5
  m_AutoUVMaxAngle: 89
  m_LightmapParameters: {fileID: 0}
  m_SortingLayerID: 0
  m_SortingLayer: 0
  m_SortingOrder: 0
  serializedVersion: 2
  m_Quality: 0
  m_UpdateWhenOffscreen: 0
  m_SkinnedMotionVectors: 1
  m_Mesh: {fileID: -3224786205612597326, guid: bd83b7da59c20464288209a8d297eb23, type: 3}
  m_Bones:
  - {fileID: 1938258143868302625}
  - {fileID: 2213934051885706106}
  - {fileID: 8838077119061227895}
  - {fileID: 1072987915240726049}
  - {fileID: 2083908462879253995}
  - {fileID: 7165733193108801435}
  - {fileID: 9065392670172053777}
  - {fileID: 8794461944997976966}
  - {fileID: 68885027530652865}
  - {fileID: 5114048528780718263}
  - {fileID: 1441933759282123437}
  - {fileID: 7690087476972658941}
  - {fileID: 5449621038571580251}
  - {fileID: 8458678598350430627}
  - {fileID: 60140218965175389}
  - {fileID: 8237444189202554715}
  - {fileID: 7886771294037442256}
  - {fileID: 9067571933725142066}
  - {fileID: 8458283327961498755}
  - {fileID: 1048202198342786474}
  - {fileID: 1812888332891644609}
  - {fileID: 4280079281931755176}
  - {fileID: 8257999770298833228}
  - {fileID: 8722219391217300777}
  - {fileID: 5141777383860995727}
  - {fileID: 741901621801399933}
  - {fileID: 5796227136301442986}
  - {fileID: 3467435945612739511}
  - {fileID: 7107152472988035247}
  - {fileID: 1899237481613579145}
  - {fileID: 1072956195028648943}
  - {fileID: 4537286263251977066}
  - {fileID: 5851266236970932624}
  - {fileID: 928054020610740876}
  - {fileID: 7077671656414788194}
  - {fileID: 5374069516216041153}
  - {fileID: 4697289132854034157}
  - {fileID: 2067485018715366083}
  - {fileID: 2028020971456363666}
  - {fileID: 8994295638053101437}
  - {fileID: 8181709867746393275}
  - {fileID: 5252675849936356531}
  - {fileID: 2494741598589357588}
  - {fileID: 1313490858972263176}
  - {fileID: 2919075953274030280}
  - {fileID: 1606129319373810601}
  - {fileID: 2227139462160096108}
  - {fileID: 75667518262404879}
  - {fileID: 5903162699863436279}
  - {fileID: 1232837664396209926}
  - {fileID: 2719996790561535148}
  - {fileID: 1233032819600758446}
  - {fileID: 6228555187739366079}
  - {fileID: 2939016326458881785}
  - {fileID: 3515565283368538990}
  - {fileID: 3382376877176477235}
  - {fileID: 6335622253722265381}
  - {fileID: 8034860563553262300}
  - {fileID: 1050769216725836808}
  - {fileID: 5951413753473552764}
  - {fileID: 3357301853925434576}
  m_BlendShapeWeights: []
  m_RootBone: {fileID: 1938258143868302625}
  m_AABB:
    m_Center: {x: 0.00021964312, y: -0.58708906, z: -0.0010171384}
    m_Extent: {x: 0.19116375, y: 0.5754578, z: 0.2694217}
  m_DirtyAABB: 0
--- !u!1 &4965615396354411857
GameObject:
  m_ObjectHideFlags: 0
  m_CorrespondingSourceObject: {fileID: 0}
  m_PrefabInstance: {fileID: 0}
  m_PrefabAsset: {fileID: 0}
  serializedVersion: 6
  m_Component:
  - component: {fileID: 1233032819600758446}
  m_Layer: 0
  m_Name: PT_Medieval_Male_LeftCape3
  m_TagString: Untagged
  m_Icon: {fileID: 0}
  m_NavMeshLayer: 0
  m_StaticEditorFlags: 0
  m_IsActive: 1
--- !u!4 &1233032819600758446
Transform:
  m_ObjectHideFlags: 0
  m_CorrespondingSourceObject: {fileID: 0}
  m_PrefabInstance: {fileID: 0}
  m_PrefabAsset: {fileID: 0}
  m_GameObject: {fileID: 4965615396354411857}
  m_LocalRotation: {x: 0, y: -0, z: -0, w: 1}
  m_LocalPosition: {x: -0.0056829997, y: 0.35933298, z: 0.03601654}
  m_LocalScale: {x: 1, y: 1, z: 1}
  m_Children:
  - {fileID: 6228555187739366079}
  m_Father: {fileID: 2719996790561535148}
  m_RootOrder: 0
  m_LocalEulerAnglesHint: {x: 0, y: 0, z: 0}
--- !u!1 &5024226773196590048
GameObject:
  m_ObjectHideFlags: 0
  m_CorrespondingSourceObject: {fileID: 0}
  m_PrefabInstance: {fileID: 0}
  m_PrefabAsset: {fileID: 0}
  serializedVersion: 6
  m_Component:
  - component: {fileID: 1606129319373810601}
  m_Layer: 0
  m_Name: PT_Medieval_Male_RightCape
  m_TagString: Untagged
  m_Icon: {fileID: 0}
  m_NavMeshLayer: 0
  m_StaticEditorFlags: 0
  m_IsActive: 1
--- !u!4 &1606129319373810601
Transform:
  m_ObjectHideFlags: 0
  m_CorrespondingSourceObject: {fileID: 0}
  m_PrefabInstance: {fileID: 0}
  m_PrefabAsset: {fileID: 0}
  m_GameObject: {fileID: 5024226773196590048}
  m_LocalRotation: {x: 0, y: -0, z: -0, w: 1}
  m_LocalPosition: {x: 0.11145995, y: 0.08649874, z: -0.14882901}
  m_LocalScale: {x: 1, y: 1, z: 1}
  m_Children:
  - {fileID: 2227139462160096108}
  m_Father: {fileID: 1072987915240726049}
  m_RootOrder: 6
  m_LocalEulerAnglesHint: {x: 0, y: 0, z: 0}
--- !u!1 &5061525593908032342
GameObject:
  m_ObjectHideFlags: 0
  m_CorrespondingSourceObject: {fileID: 0}
  m_PrefabInstance: {fileID: 0}
  m_PrefabAsset: {fileID: 0}
  serializedVersion: 6
  m_Component:
  - component: {fileID: 8458678598350430627}
  m_Layer: 0
  m_Name: PT_Medieval_Male_RightHandThumb3
  m_TagString: Untagged
  m_Icon: {fileID: 0}
  m_NavMeshLayer: 0
  m_StaticEditorFlags: 0
  m_IsActive: 1
--- !u!4 &8458678598350430627
Transform:
  m_ObjectHideFlags: 0
  m_CorrespondingSourceObject: {fileID: 0}
  m_PrefabInstance: {fileID: 0}
  m_PrefabAsset: {fileID: 0}
  m_GameObject: {fileID: 5061525593908032342}
  m_LocalRotation: {x: -0.07131409, y: 9.5009456e-17, z: 1.7368915e-16, w: 0.9974539}
  m_LocalPosition: {x: 0.0113181, y: -0.038020678, z: 0.00014049829}
  m_LocalScale: {x: 1, y: 1, z: 1}
  m_Children: []
  m_Father: {fileID: 5449621038571580251}
  m_RootOrder: 0
  m_LocalEulerAnglesHint: {x: 0, y: 0, z: 0}
--- !u!1 &5150390023098709989
GameObject:
  m_ObjectHideFlags: 0
  m_CorrespondingSourceObject: {fileID: 0}
  m_PrefabInstance: {fileID: 0}
  m_PrefabAsset: {fileID: 0}
  serializedVersion: 6
  m_Component:
  - component: {fileID: 6228555187739366079}
  m_Layer: 0
  m_Name: PT_Medieval_Male_LeftCape4
  m_TagString: Untagged
  m_Icon: {fileID: 0}
  m_NavMeshLayer: 0
  m_StaticEditorFlags: 0
  m_IsActive: 1
--- !u!4 &6228555187739366079
Transform:
  m_ObjectHideFlags: 0
  m_CorrespondingSourceObject: {fileID: 0}
  m_PrefabInstance: {fileID: 0}
  m_PrefabAsset: {fileID: 0}
  m_GameObject: {fileID: 5150390023098709989}
  m_LocalRotation: {x: 0, y: -0, z: -0, w: 1}
  m_LocalPosition: {x: 0.0011659999, y: 0.32133347, z: 0.037259113}
  m_LocalScale: {x: 1, y: 1, z: 1}
  m_Children: []
  m_Father: {fileID: 1233032819600758446}
  m_RootOrder: 0
  m_LocalEulerAnglesHint: {x: 0, y: 0, z: 0}
--- !u!1 &5208753240321402320
GameObject:
  m_ObjectHideFlags: 0
  m_CorrespondingSourceObject: {fileID: 0}
  m_PrefabInstance: {fileID: 0}
  m_PrefabAsset: {fileID: 0}
  serializedVersion: 6
  m_Component:
  - component: {fileID: 9065392670172053777}
  m_Layer: 0
  m_Name: PT_Medieval_Male_HeadTop
  m_TagString: Untagged
  m_Icon: {fileID: 0}
  m_NavMeshLayer: 0
  m_StaticEditorFlags: 0
  m_IsActive: 1
--- !u!4 &9065392670172053777
Transform:
  m_ObjectHideFlags: 0
  m_CorrespondingSourceObject: {fileID: 0}
  m_PrefabInstance: {fileID: 0}
  m_PrefabAsset: {fileID: 0}
  m_GameObject: {fileID: 5208753240321402320}
  m_LocalRotation: {x: 0, y: -0, z: -0, w: 1}
  m_LocalPosition: {x: -0, y: 0.20320208, z: 0.014664959}
  m_LocalScale: {x: 1, y: 1, z: 1}
  m_Children: []
  m_Father: {fileID: 7165733193108801435}
  m_RootOrder: 0
  m_LocalEulerAnglesHint: {x: 0, y: 0, z: 0}
--- !u!1 &5218915195672700686
GameObject:
  m_ObjectHideFlags: 0
  m_CorrespondingSourceObject: {fileID: 0}
  m_PrefabInstance: {fileID: 0}
  m_PrefabAsset: {fileID: 0}
  serializedVersion: 6
  m_Component:
  - component: {fileID: 4838729760928824756}
  - component: {fileID: 1569139158226053070}
  m_Layer: 0
  m_Name: PT_Medieval_Male_Modular_Free_Pack 1
  m_TagString: Untagged
  m_Icon: {fileID: 0}
  m_NavMeshLayer: 0
  m_StaticEditorFlags: 0
  m_IsActive: 1
--- !u!4 &4838729760928824756
Transform:
  m_ObjectHideFlags: 0
  m_CorrespondingSourceObject: {fileID: 0}
  m_PrefabInstance: {fileID: 0}
  m_PrefabAsset: {fileID: 0}
  m_GameObject: {fileID: 5218915195672700686}
  m_LocalRotation: {x: 0, y: 0, z: 0, w: 1}
  m_LocalPosition: {x: 0, y: 0, z: 0}
  m_LocalScale: {x: 1, y: 1, z: 1}
  m_Children:
  - {fileID: 1938258143868302625}
  - {fileID: 4038902097694484256}
  - {fileID: 4473650482956046587}
  - {fileID: 7916591077565366992}
  - {fileID: 6386760201206535728}
  - {fileID: 1193942796926872507}
  - {fileID: 576914360995167947}
  m_Father: {fileID: 0}
  m_RootOrder: 0
  m_LocalEulerAnglesHint: {x: 0, y: 0, z: 0}
--- !u!95 &1569139158226053070
Animator:
  serializedVersion: 3
  m_ObjectHideFlags: 0
  m_CorrespondingSourceObject: {fileID: 0}
  m_PrefabInstance: {fileID: 0}
  m_PrefabAsset: {fileID: 0}
  m_GameObject: {fileID: 5218915195672700686}
  m_Enabled: 1
  m_Avatar: {fileID: 9000000, guid: bd83b7da59c20464288209a8d297eb23, type: 3}
  m_Controller: {fileID: 0}
  m_CullingMode: 1
  m_UpdateMode: 0
  m_ApplyRootMotion: 1
  m_LinearVelocityBlending: 0
  m_WarningMessage: 
  m_HasTransformHierarchy: 1
  m_AllowConstantClipSamplingOptimization: 1
  m_KeepAnimatorControllerStateOnDisable: 0
--- !u!1 &5298743060680182453
GameObject:
  m_ObjectHideFlags: 0
  m_CorrespondingSourceObject: {fileID: 0}
  m_PrefabInstance: {fileID: 0}
  m_PrefabAsset: {fileID: 0}
  serializedVersion: 6
  m_Component:
  - component: {fileID: 3515565283368538990}
  m_Layer: 0
  m_Name: PT_Medieval_Male_LeftLeg
  m_TagString: Untagged
  m_Icon: {fileID: 0}
  m_NavMeshLayer: 0
  m_StaticEditorFlags: 0
  m_IsActive: 1
--- !u!4 &3515565283368538990
Transform:
  m_ObjectHideFlags: 0
  m_CorrespondingSourceObject: {fileID: 0}
  m_PrefabInstance: {fileID: 0}
  m_PrefabAsset: {fileID: 0}
  m_GameObject: {fileID: 5298743060680182453}
  m_LocalRotation: {x: -0.021330472, y: -0.00066280883, z: 0.03105127, w: 0.99929}
  m_LocalPosition: {x: 0.0025026707, y: 0.42045552, z: 0.004834262}
  m_LocalScale: {x: 1, y: 1, z: 1}
  m_Children:
  - {fileID: 3382376877176477235}
  m_Father: {fileID: 2939016326458881785}
  m_RootOrder: 0
  m_LocalEulerAnglesHint: {x: 0, y: 0, z: 0}
--- !u!1 &5429604404041980476
GameObject:
  m_ObjectHideFlags: 0
  m_CorrespondingSourceObject: {fileID: 0}
  m_PrefabInstance: {fileID: 0}
  m_PrefabAsset: {fileID: 0}
  serializedVersion: 6
  m_Component:
  - component: {fileID: 8794461944997976966}
  m_Layer: 0
  m_Name: PT_Medieval_Male_RightShoulder
  m_TagString: Untagged
  m_Icon: {fileID: 0}
  m_NavMeshLayer: 0
  m_StaticEditorFlags: 0
  m_IsActive: 1
--- !u!4 &8794461944997976966
Transform:
  m_ObjectHideFlags: 0
  m_CorrespondingSourceObject: {fileID: 0}
  m_PrefabInstance: {fileID: 0}
  m_PrefabAsset: {fileID: 0}
  m_GameObject: {fileID: 5429604404041980476}
  m_LocalRotation: {x: -0.41975918, y: 0.57201356, z: 0.43446517, w: 0.55483586}
  m_LocalPosition: {x: 0.065679304, y: 0.065528035, z: -0.0067431717}
  m_LocalScale: {x: 1, y: 1, z: 1}
  m_Children:
  - {fileID: 68885027530652865}
  m_Father: {fileID: 1072987915240726049}
  m_RootOrder: 7
  m_LocalEulerAnglesHint: {x: 0, y: 0, z: 0}
--- !u!1 &5565102964885857767
GameObject:
  m_ObjectHideFlags: 0
  m_CorrespondingSourceObject: {fileID: 0}
  m_PrefabInstance: {fileID: 0}
  m_PrefabAsset: {fileID: 0}
  serializedVersion: 6
  m_Component:
  - component: {fileID: 2939016326458881785}
  m_Layer: 0
  m_Name: PT_Medieval_Male_LeftUpLeg
  m_TagString: Untagged
  m_Icon: {fileID: 0}
  m_NavMeshLayer: 0
  m_StaticEditorFlags: 0
  m_IsActive: 1
--- !u!4 &2939016326458881785
Transform:
  m_ObjectHideFlags: 0
  m_CorrespondingSourceObject: {fileID: 0}
  m_PrefabInstance: {fileID: 0}
  m_PrefabAsset: {fileID: 0}
  m_GameObject: {fileID: 5565102964885857767}
  m_LocalRotation: {x: -0.00022123482, y: 0.008998809, z: 0.99965745, w: 0.024576424}
  m_LocalPosition: {x: -0.07351148, y: -0.09832772, z: -0.011281599}
  m_LocalScale: {x: 1, y: 1, z: 1}
  m_Children:
  - {fileID: 3515565283368538990}
  - {fileID: 2819470417524249770}
  m_Father: {fileID: 1938258143868302625}
  m_RootOrder: 0
  m_LocalEulerAnglesHint: {x: 0, y: 0, z: 0}
--- !u!1 &5675493080297952698
GameObject:
  m_ObjectHideFlags: 0
  m_CorrespondingSourceObject: {fileID: 0}
  m_PrefabInstance: {fileID: 0}
  m_PrefabAsset: {fileID: 0}
  serializedVersion: 6
  m_Component:
  - component: {fileID: 5141777383860995727}
  m_Layer: 0
  m_Name: PT_Medieval_Male_RightHandPinky2
  m_TagString: Untagged
  m_Icon: {fileID: 0}
  m_NavMeshLayer: 0
  m_StaticEditorFlags: 0
  m_IsActive: 1
--- !u!4 &5141777383860995727
Transform:
  m_ObjectHideFlags: 0
  m_CorrespondingSourceObject: {fileID: 0}
  m_PrefabInstance: {fileID: 0}
  m_PrefabAsset: {fileID: 0}
  m_GameObject: {fileID: 5675493080297952698}
  m_LocalRotation: {x: -0.08476753, y: -1.6469403e-17, z: -5.411375e-17, w: 0.9964008}
  m_LocalPosition: {x: -0.000749904, y: -0.028182639, z: 0.01020375}
  m_LocalScale: {x: 1, y: 1, z: 1}
  m_Children:
  - {fileID: 741901621801399933}
  m_Father: {fileID: 8722219391217300777}
  m_RootOrder: 0
  m_LocalEulerAnglesHint: {x: 0, y: 0, z: 0}
--- !u!1 &5744719161675244542
GameObject:
  m_ObjectHideFlags: 0
  m_CorrespondingSourceObject: {fileID: 0}
  m_PrefabInstance: {fileID: 0}
  m_PrefabAsset: {fileID: 0}
  serializedVersion: 6
  m_Component:
  - component: {fileID: 8237444189202554715}
  m_Layer: 0
  m_Name: PT_Medieval_Male_RightHandIndex2
  m_TagString: Untagged
  m_Icon: {fileID: 0}
  m_NavMeshLayer: 0
  m_StaticEditorFlags: 0
  m_IsActive: 1
--- !u!4 &8237444189202554715
Transform:
  m_ObjectHideFlags: 0
  m_CorrespondingSourceObject: {fileID: 0}
  m_PrefabInstance: {fileID: 0}
  m_PrefabAsset: {fileID: 0}
  m_GameObject: {fileID: 5744719161675244542}
  m_LocalRotation: {x: 0.09512609, y: 1.3201394e-18, z: -2.9043072e-17, w: 0.9954652}
  m_LocalPosition: {x: -0.0009678826, y: -0.04275242, z: 0.00105289}
  m_LocalScale: {x: 1, y: 1, z: 1}
  m_Children:
  - {fileID: 7886771294037442256}
  m_Father: {fileID: 60140218965175389}
  m_RootOrder: 0
  m_LocalEulerAnglesHint: {x: 0, y: 0, z: 0}
--- !u!1 &5834283838367466626
GameObject:
  m_ObjectHideFlags: 0
  m_CorrespondingSourceObject: {fileID: 0}
  m_PrefabInstance: {fileID: 0}
  m_PrefabAsset: {fileID: 0}
  serializedVersion: 6
  m_Component:
  - component: {fileID: 8458283327961498755}
  m_Layer: 0
  m_Name: PT_Medieval_Male_RightHandMiddle2
  m_TagString: Untagged
  m_Icon: {fileID: 0}
  m_NavMeshLayer: 0
  m_StaticEditorFlags: 0
  m_IsActive: 1
--- !u!4 &8458283327961498755
Transform:
  m_ObjectHideFlags: 0
  m_CorrespondingSourceObject: {fileID: 0}
  m_PrefabInstance: {fileID: 0}
  m_PrefabAsset: {fileID: 0}
  m_GameObject: {fileID: 5834283838367466626}
  m_LocalRotation: {x: 0.1192209, y: 2.4817832e-17, z: -6.618089e-17, w: 0.99286777}
  m_LocalPosition: {x: 0.001068698, y: -0.04306795, z: 0.001119482}
  m_LocalScale: {x: 1, y: 1, z: 1}
  m_Children:
  - {fileID: 1048202198342786474}
  m_Father: {fileID: 9067571933725142066}
  m_RootOrder: 0
  m_LocalEulerAnglesHint: {x: 0, y: 0, z: 0}
--- !u!1 &5843707832468295536
GameObject:
  m_ObjectHideFlags: 0
  m_CorrespondingSourceObject: {fileID: 0}
  m_PrefabInstance: {fileID: 0}
  m_PrefabAsset: {fileID: 0}
  serializedVersion: 6
  m_Component:
  - component: {fileID: 7364605748430159936}
  m_Layer: 0
  m_Name: PT_Medieval_Male_Quiver_slot
  m_TagString: Untagged
  m_Icon: {fileID: 0}
  m_NavMeshLayer: 0
  m_StaticEditorFlags: 0
  m_IsActive: 1
--- !u!4 &7364605748430159936
Transform:
  m_ObjectHideFlags: 0
  m_CorrespondingSourceObject: {fileID: 0}
  m_PrefabInstance: {fileID: 0}
  m_PrefabAsset: {fileID: 0}
  m_GameObject: {fileID: 5843707832468295536}
  m_LocalRotation: {x: 0.003948614, y: 0.0003202507, z: -0.27619645, w: 0.96109307}
  m_LocalPosition: {x: 0.069853894, y: -0.007842677, z: -0.1746521}
  m_LocalScale: {x: 1, y: 1, z: 1}
  m_Children: []
  m_Father: {fileID: 1072987915240726049}
  m_RootOrder: 5
  m_LocalEulerAnglesHint: {x: 0, y: 0, z: 0}
--- !u!1 &5893495454659395777
GameObject:
  m_ObjectHideFlags: 0
  m_CorrespondingSourceObject: {fileID: 0}
  m_PrefabInstance: {fileID: 0}
  m_PrefabAsset: {fileID: 0}
  serializedVersion: 6
  m_Component:
  - component: {fileID: 2227139462160096108}
  m_Layer: 0
  m_Name: PT_Medieval_Male_RightCape2
  m_TagString: Untagged
  m_Icon: {fileID: 0}
  m_NavMeshLayer: 0
  m_StaticEditorFlags: 0
  m_IsActive: 1
--- !u!4 &2227139462160096108
Transform:
  m_ObjectHideFlags: 0
  m_CorrespondingSourceObject: {fileID: 0}
  m_PrefabInstance: {fileID: 0}
  m_PrefabAsset: {fileID: 0}
  m_GameObject: {fileID: 5893495454659395777}
  m_LocalRotation: {x: 0, y: -0, z: -0, w: 1}
  m_LocalPosition: {x: -0.008249855, y: -0.36404067, z: -0.047081027}
  m_LocalScale: {x: 1, y: 1, z: 1}
  m_Children:
  - {fileID: 75667518262404879}
  m_Father: {fileID: 1606129319373810601}
  m_RootOrder: 0
  m_LocalEulerAnglesHint: {x: 0, y: 0, z: 0}
--- !u!1 &5899667523058190469
GameObject:
  m_ObjectHideFlags: 0
  m_CorrespondingSourceObject: {fileID: 0}
  m_PrefabInstance: {fileID: 0}
  m_PrefabAsset: {fileID: 0}
  serializedVersion: 6
  m_Component:
  - component: {fileID: 4697289132854034157}
  m_Layer: 0
  m_Name: PT_Medieval_Male_LeftHandMiddle1
  m_TagString: Untagged
  m_Icon: {fileID: 0}
  m_NavMeshLayer: 0
  m_StaticEditorFlags: 0
  m_IsActive: 1
--- !u!4 &4697289132854034157
Transform:
  m_ObjectHideFlags: 0
  m_CorrespondingSourceObject: {fileID: 0}
  m_PrefabInstance: {fileID: 0}
  m_PrefabAsset: {fileID: 0}
  m_GameObject: {fileID: 5899667523058190469}
  m_LocalRotation: {x: 0.07121196, y: -0.0049869064, z: -0.06967975, w: 0.9950119}
  m_LocalPosition: {x: 0.006663853, y: 0.1055457, z: -0.0064793346}
  m_LocalScale: {x: 1, y: 1, z: 1}
  m_Children:
  - {fileID: 2067485018715366083}
  m_Father: {fileID: 1899237481613579145}
  m_RootOrder: 1
  m_LocalEulerAnglesHint: {x: 0, y: 0, z: 0}
--- !u!1 &6020783780214245549
GameObject:
  m_ObjectHideFlags: 0
  m_CorrespondingSourceObject: {fileID: 0}
  m_PrefabInstance: {fileID: 0}
  m_PrefabAsset: {fileID: 0}
  serializedVersion: 6
  m_Component:
  - component: {fileID: 7916591077565366992}
  - component: {fileID: 2523928273192407609}
  m_Layer: 0
  m_Name: PT_Medieval_Male_Naked_upper
  m_TagString: Untagged
  m_Icon: {fileID: 0}
  m_NavMeshLayer: 0
  m_StaticEditorFlags: 0
  m_IsActive: 1
--- !u!4 &7916591077565366992
Transform:
  m_ObjectHideFlags: 0
  m_CorrespondingSourceObject: {fileID: 0}
  m_PrefabInstance: {fileID: 0}
  m_PrefabAsset: {fileID: 0}
  m_GameObject: {fileID: 6020783780214245549}
  m_LocalRotation: {x: 0, y: -0, z: -0, w: 1}
  m_LocalPosition: {x: -0, y: 0, z: 0}
  m_LocalScale: {x: 1, y: 1, z: 1}
  m_Children: []
  m_Father: {fileID: 4838729760928824756}
  m_RootOrder: 3
  m_LocalEulerAnglesHint: {x: 0, y: 0, z: 0}
--- !u!137 &2523928273192407609
SkinnedMeshRenderer:
  m_ObjectHideFlags: 0
  m_CorrespondingSourceObject: {fileID: 0}
  m_PrefabInstance: {fileID: 0}
  m_PrefabAsset: {fileID: 0}
  m_GameObject: {fileID: 6020783780214245549}
  m_Enabled: 1
  m_CastShadows: 1
  m_ReceiveShadows: 1
  m_DynamicOccludee: 1
  m_MotionVectors: 1
  m_LightProbeUsage: 1
  m_ReflectionProbeUsage: 1
  m_RayTracingMode: 0
  m_RenderingLayerMask: 1
  m_RendererPriority: 0
  m_Materials:
  - {fileID: 2100000, guid: c79855c6f54ed954293d041acc3120a8, type: 2}
  m_StaticBatchInfo:
    firstSubMesh: 0
    subMeshCount: 0
  m_StaticBatchRoot: {fileID: 0}
  m_ProbeAnchor: {fileID: 0}
  m_LightProbeVolumeOverride: {fileID: 0}
  m_ScaleInLightmap: 1
  m_ReceiveGI: 1
  m_PreserveUVs: 0
  m_IgnoreNormalsForChartDetection: 0
  m_ImportantGI: 0
  m_StitchLightmapSeams: 1
  m_SelectedEditorRenderState: 3
  m_MinimumChartSize: 4
  m_AutoUVMaxDistance: 0.5
  m_AutoUVMaxAngle: 89
  m_LightmapParameters: {fileID: 0}
  m_SortingLayerID: 0
  m_SortingLayer: 0
  m_SortingOrder: 0
  serializedVersion: 2
  m_Quality: 0
  m_UpdateWhenOffscreen: 0
  m_SkinnedMotionVectors: 1
  m_Mesh: {fileID: 3238587029837653941, guid: bd83b7da59c20464288209a8d297eb23, type: 3}
  m_Bones:
  - {fileID: 1938258143868302625}
  - {fileID: 2213934051885706106}
  - {fileID: 8838077119061227895}
  - {fileID: 1072987915240726049}
  - {fileID: 2083908462879253995}
  - {fileID: 7165733193108801435}
  - {fileID: 9065392670172053777}
  - {fileID: 8794461944997976966}
  - {fileID: 68885027530652865}
  - {fileID: 5114048528780718263}
  - {fileID: 1441933759282123437}
  - {fileID: 7690087476972658941}
  - {fileID: 5449621038571580251}
  - {fileID: 8458678598350430627}
  - {fileID: 60140218965175389}
  - {fileID: 8237444189202554715}
  - {fileID: 7886771294037442256}
  - {fileID: 9067571933725142066}
  - {fileID: 8458283327961498755}
  - {fileID: 1048202198342786474}
  - {fileID: 1812888332891644609}
  - {fileID: 4280079281931755176}
  - {fileID: 8257999770298833228}
  - {fileID: 8722219391217300777}
  - {fileID: 5141777383860995727}
  - {fileID: 741901621801399933}
  - {fileID: 5796227136301442986}
  - {fileID: 3467435945612739511}
  - {fileID: 7107152472988035247}
  - {fileID: 1899237481613579145}
  - {fileID: 1072956195028648943}
  - {fileID: 4537286263251977066}
  - {fileID: 5851266236970932624}
  - {fileID: 928054020610740876}
  - {fileID: 7077671656414788194}
  - {fileID: 5374069516216041153}
  - {fileID: 4697289132854034157}
  - {fileID: 2067485018715366083}
  - {fileID: 2028020971456363666}
  - {fileID: 8994295638053101437}
  - {fileID: 8181709867746393275}
  - {fileID: 5252675849936356531}
  - {fileID: 2494741598589357588}
  - {fileID: 1313490858972263176}
  - {fileID: 2919075953274030280}
  - {fileID: 1606129319373810601}
  - {fileID: 2227139462160096108}
  - {fileID: 75667518262404879}
  - {fileID: 5903162699863436279}
  - {fileID: 1232837664396209926}
  - {fileID: 2719996790561535148}
  - {fileID: 1233032819600758446}
  - {fileID: 6228555187739366079}
  - {fileID: 2939016326458881785}
  - {fileID: 3515565283368538990}
  - {fileID: 3382376877176477235}
  - {fileID: 6335622253722265381}
  - {fileID: 8034860563553262300}
  - {fileID: 1050769216725836808}
  - {fileID: 5951413753473552764}
  - {fileID: 3357301853925434576}
  m_BlendShapeWeights: []
  m_RootBone: {fileID: 1938258143868302625}
  m_AABB:
    m_Center: {x: -0.000000029802322, y: 0.21795815, z: -0.04085035}
    m_Extent: {x: 0.9283502, y: 0.30263525, z: 0.18033308}
  m_DirtyAABB: 0
--- !u!1 &6034976945365315071
GameObject:
  m_ObjectHideFlags: 0
  m_CorrespondingSourceObject: {fileID: 0}
  m_PrefabInstance: {fileID: 0}
  m_PrefabAsset: {fileID: 0}
  serializedVersion: 6
  m_Component:
  - component: {fileID: 1812888332891644609}
  m_Layer: 0
  m_Name: PT_Medieval_Male_RightHandRing1
  m_TagString: Untagged
  m_Icon: {fileID: 0}
  m_NavMeshLayer: 0
  m_StaticEditorFlags: 0
  m_IsActive: 1
--- !u!4 &1812888332891644609
Transform:
  m_ObjectHideFlags: 0
  m_CorrespondingSourceObject: {fileID: 0}
  m_PrefabInstance: {fileID: 0}
  m_PrefabAsset: {fileID: 0}
  m_GameObject: {fileID: 6034976945365315071}
  m_LocalRotation: {x: 0.1255726, y: -0.009746213, z: -0.076765224, w: 0.989062}
  m_LocalPosition: {x: 0.020498829, y: -0.10116939, z: 0.009756999}
  m_LocalScale: {x: 1, y: 1, z: 1}
  m_Children:
  - {fileID: 4280079281931755176}
  m_Father: {fileID: 1441933759282123437}
  m_RootOrder: 4
  m_LocalEulerAnglesHint: {x: 0, y: 0, z: 0}
--- !u!1 &6072306125696602506
GameObject:
  m_ObjectHideFlags: 0
  m_CorrespondingSourceObject: {fileID: 0}
  m_PrefabInstance: {fileID: 0}
  m_PrefabAsset: {fileID: 0}
  serializedVersion: 6
  m_Component:
  - component: {fileID: 7886771294037442256}
  m_Layer: 0
  m_Name: PT_Medieval_Male_RightHandIndex3
  m_TagString: Untagged
  m_Icon: {fileID: 0}
  m_NavMeshLayer: 0
  m_StaticEditorFlags: 0
  m_IsActive: 1
--- !u!4 &7886771294037442256
Transform:
  m_ObjectHideFlags: 0
  m_CorrespondingSourceObject: {fileID: 0}
  m_PrefabInstance: {fileID: 0}
  m_PrefabAsset: {fileID: 0}
  m_GameObject: {fileID: 6072306125696602506}
  m_LocalRotation: {x: 0.16408321, y: -4.554224e-18, z: -5.4650688e-17, w: 0.9864465}
  m_LocalPosition: {x: 0.0013015639, y: -0.03672187, z: -0.0035456868}
  m_LocalScale: {x: 1, y: 1, z: 1}
  m_Children: []
  m_Father: {fileID: 8237444189202554715}
  m_RootOrder: 0
  m_LocalEulerAnglesHint: {x: 0, y: 0, z: 0}
--- !u!1 &6198051891471205840
GameObject:
  m_ObjectHideFlags: 0
  m_CorrespondingSourceObject: {fileID: 0}
  m_PrefabInstance: {fileID: 0}
  m_PrefabAsset: {fileID: 0}
  serializedVersion: 6
  m_Component:
  - component: {fileID: 6386760201206535728}
  - component: {fileID: 3142377169840947443}
  m_Layer: 0
  m_Name: PT_Medieval_Male_Peasant_01_head
  m_TagString: Untagged
  m_Icon: {fileID: 0}
  m_NavMeshLayer: 0
  m_StaticEditorFlags: 0
  m_IsActive: 1
--- !u!4 &6386760201206535728
Transform:
  m_ObjectHideFlags: 0
  m_CorrespondingSourceObject: {fileID: 0}
  m_PrefabInstance: {fileID: 0}
  m_PrefabAsset: {fileID: 0}
  m_GameObject: {fileID: 6198051891471205840}
  m_LocalRotation: {x: 0, y: -0, z: -0, w: 1}
  m_LocalPosition: {x: -0, y: 0, z: 0}
  m_LocalScale: {x: 1, y: 1, z: 1}
  m_Children: []
  m_Father: {fileID: 4838729760928824756}
  m_RootOrder: 4
  m_LocalEulerAnglesHint: {x: 0, y: 0, z: 0}
--- !u!137 &3142377169840947443
SkinnedMeshRenderer:
  m_ObjectHideFlags: 0
  m_CorrespondingSourceObject: {fileID: 0}
  m_PrefabInstance: {fileID: 0}
  m_PrefabAsset: {fileID: 0}
  m_GameObject: {fileID: 6198051891471205840}
  m_Enabled: 1
  m_CastShadows: 1
  m_ReceiveShadows: 1
  m_DynamicOccludee: 1
  m_MotionVectors: 1
  m_LightProbeUsage: 1
  m_ReflectionProbeUsage: 1
  m_RayTracingMode: 0
  m_RenderingLayerMask: 1
  m_RendererPriority: 0
  m_Materials:
  - {fileID: 2100000, guid: c79855c6f54ed954293d041acc3120a8, type: 2}
  m_StaticBatchInfo:
    firstSubMesh: 0
    subMeshCount: 0
  m_StaticBatchRoot: {fileID: 0}
  m_ProbeAnchor: {fileID: 0}
  m_LightProbeVolumeOverride: {fileID: 0}
  m_ScaleInLightmap: 1
  m_ReceiveGI: 1
  m_PreserveUVs: 0
  m_IgnoreNormalsForChartDetection: 0
  m_ImportantGI: 0
  m_StitchLightmapSeams: 1
  m_SelectedEditorRenderState: 3
  m_MinimumChartSize: 4
  m_AutoUVMaxDistance: 0.5
  m_AutoUVMaxAngle: 89
  m_LightmapParameters: {fileID: 0}
  m_SortingLayerID: 0
  m_SortingLayer: 0
  m_SortingOrder: 0
  serializedVersion: 2
  m_Quality: 0
  m_UpdateWhenOffscreen: 0
  m_SkinnedMotionVectors: 1
  m_Mesh: {fileID: -391187891731541924, guid: bd83b7da59c20464288209a8d297eb23, type: 3}
  m_Bones:
  - {fileID: 1938258143868302625}
  - {fileID: 2213934051885706106}
  - {fileID: 8838077119061227895}
  - {fileID: 1072987915240726049}
  - {fileID: 2083908462879253995}
  - {fileID: 7165733193108801435}
  - {fileID: 9065392670172053777}
  - {fileID: 8794461944997976966}
  - {fileID: 68885027530652865}
  - {fileID: 5114048528780718263}
  - {fileID: 1441933759282123437}
  - {fileID: 7690087476972658941}
  - {fileID: 5449621038571580251}
  - {fileID: 8458678598350430627}
  - {fileID: 60140218965175389}
  - {fileID: 8237444189202554715}
  - {fileID: 7886771294037442256}
  - {fileID: 9067571933725142066}
  - {fileID: 8458283327961498755}
  - {fileID: 1048202198342786474}
  - {fileID: 1812888332891644609}
  - {fileID: 4280079281931755176}
  - {fileID: 8257999770298833228}
  - {fileID: 8722219391217300777}
  - {fileID: 5141777383860995727}
  - {fileID: 741901621801399933}
  - {fileID: 5796227136301442986}
  - {fileID: 3467435945612739511}
  - {fileID: 7107152472988035247}
  - {fileID: 1899237481613579145}
  - {fileID: 1072956195028648943}
  - {fileID: 4537286263251977066}
  - {fileID: 5851266236970932624}
  - {fileID: 928054020610740876}
  - {fileID: 7077671656414788194}
  - {fileID: 5374069516216041153}
  - {fileID: 4697289132854034157}
  - {fileID: 2067485018715366083}
  - {fileID: 2028020971456363666}
  - {fileID: 8994295638053101437}
  - {fileID: 8181709867746393275}
  - {fileID: 5252675849936356531}
  - {fileID: 2494741598589357588}
  - {fileID: 1313490858972263176}
  - {fileID: 2919075953274030280}
  - {fileID: 1606129319373810601}
  - {fileID: 2227139462160096108}
  - {fileID: 75667518262404879}
  - {fileID: 5903162699863436279}
  - {fileID: 1232837664396209926}
  - {fileID: 2719996790561535148}
  - {fileID: 1233032819600758446}
  - {fileID: 6228555187739366079}
  - {fileID: 2939016326458881785}
  - {fileID: 3515565283368538990}
  - {fileID: 3382376877176477235}
  - {fileID: 6335622253722265381}
  - {fileID: 8034860563553262300}
  - {fileID: 1050769216725836808}
  - {fileID: 5951413753473552764}
  - {fileID: 3357301853925434576}
  m_BlendShapeWeights: []
  m_RootBone: {fileID: 1938258143868302625}
  m_AABB:
    m_Center: {x: 0, y: 0.5223601, z: -0.021494154}
    m_Extent: {x: 0.11216225, y: 0.24197792, z: 0.14161326}
  m_DirtyAABB: 0
--- !u!1 &6250235847949960943
GameObject:
  m_ObjectHideFlags: 0
  m_CorrespondingSourceObject: {fileID: 0}
  m_PrefabInstance: {fileID: 0}
  m_PrefabAsset: {fileID: 0}
  serializedVersion: 6
  m_Component:
  - component: {fileID: 7780803645933152450}
  m_Layer: 0
  m_Name: PT_Medieval_Male_Long_Bow_slot
  m_TagString: Untagged
  m_Icon: {fileID: 0}
  m_NavMeshLayer: 0
  m_StaticEditorFlags: 0
  m_IsActive: 1
--- !u!4 &7780803645933152450
Transform:
  m_ObjectHideFlags: 0
  m_CorrespondingSourceObject: {fileID: 0}
  m_PrefabInstance: {fileID: 0}
  m_PrefabAsset: {fileID: 0}
  m_GameObject: {fileID: 6250235847949960943}
  m_LocalRotation: {x: 0.21945143, y: 0.8995494, z: 0.10542873, w: -0.3626799}
  m_LocalPosition: {x: -0.09740666, y: -0.03240751, z: -0.15668699}
  m_LocalScale: {x: 1, y: 1, z: 1}
  m_Children: []
  m_Father: {fileID: 1072987915240726049}
  m_RootOrder: 2
  m_LocalEulerAnglesHint: {x: 0, y: 0, z: 0}
--- !u!1 &6294403268061056857
GameObject:
  m_ObjectHideFlags: 0
  m_CorrespondingSourceObject: {fileID: 0}
  m_PrefabInstance: {fileID: 0}
  m_PrefabAsset: {fileID: 0}
  serializedVersion: 6
  m_Component:
  - component: {fileID: 9067571933725142066}
  m_Layer: 0
  m_Name: PT_Medieval_Male_RightHandMiddle1
  m_TagString: Untagged
  m_Icon: {fileID: 0}
  m_NavMeshLayer: 0
  m_StaticEditorFlags: 0
  m_IsActive: 1
--- !u!4 &9067571933725142066
Transform:
  m_ObjectHideFlags: 0
  m_CorrespondingSourceObject: {fileID: 0}
  m_PrefabInstance: {fileID: 0}
  m_PrefabAsset: {fileID: 0}
  m_GameObject: {fileID: 6294403268061056857}
  m_LocalRotation: {x: 0.07121196, y: -0.0049869064, z: -0.06967975, w: 0.9950119}
  m_LocalPosition: {x: -0.006663853, y: -0.1055457, z: 0.0064793346}
  m_LocalScale: {x: 1, y: 1, z: 1}
  m_Children:
  - {fileID: 8458283327961498755}
  m_Father: {fileID: 1441933759282123437}
  m_RootOrder: 2
  m_LocalEulerAnglesHint: {x: 0, y: 0, z: 0}
--- !u!1 &6308101312975556307
GameObject:
  m_ObjectHideFlags: 0
  m_CorrespondingSourceObject: {fileID: 0}
  m_PrefabInstance: {fileID: 0}
  m_PrefabAsset: {fileID: 0}
  serializedVersion: 6
  m_Component:
  - component: {fileID: 5903162699863436279}
  m_Layer: 0
  m_Name: PT_Medieval_Male_RightCape4
  m_TagString: Untagged
  m_Icon: {fileID: 0}
  m_NavMeshLayer: 0
  m_StaticEditorFlags: 0
  m_IsActive: 1
--- !u!4 &5903162699863436279
Transform:
  m_ObjectHideFlags: 0
  m_CorrespondingSourceObject: {fileID: 0}
  m_PrefabInstance: {fileID: 0}
  m_PrefabAsset: {fileID: 0}
  m_GameObject: {fileID: 6308101312975556307}
  m_LocalRotation: {x: 0, y: -0, z: -0, w: 1}
  m_LocalPosition: {x: -0.0011662522, y: -0.32133368, z: -0.037259296}
  m_LocalScale: {x: 1, y: 1, z: 1}
  m_Children: []
  m_Father: {fileID: 75667518262404879}
  m_RootOrder: 0
  m_LocalEulerAnglesHint: {x: 0, y: 0, z: 0}
--- !u!1 &6620245442013782300
GameObject:
  m_ObjectHideFlags: 0
  m_CorrespondingSourceObject: {fileID: 0}
  m_PrefabInstance: {fileID: 0}
  m_PrefabAsset: {fileID: 0}
  serializedVersion: 6
  m_Component:
  - component: {fileID: 2819470417524249770}
  m_Layer: 0
  m_Name: PT_Medieval_Male_Sheat_slot
  m_TagString: Untagged
  m_Icon: {fileID: 0}
  m_NavMeshLayer: 0
  m_StaticEditorFlags: 0
  m_IsActive: 1
--- !u!4 &2819470417524249770
Transform:
  m_ObjectHideFlags: 0
  m_CorrespondingSourceObject: {fileID: 0}
  m_PrefabInstance: {fileID: 0}
  m_PrefabAsset: {fileID: 0}
  m_GameObject: {fileID: 6620245442013782300}
  m_LocalRotation: {x: 0.58623576, y: 0.18263845, z: 0.760431, w: 0.2114603}
  m_LocalPosition: {x: 0.10185489, y: 0.08588978, z: -0.00048252856}
  m_LocalScale: {x: 1, y: 1, z: 1}
  m_Children: []
  m_Father: {fileID: 2939016326458881785}
  m_RootOrder: 1
  m_LocalEulerAnglesHint: {x: 0, y: 0, z: 0}
--- !u!1 &6834741768592828781
GameObject:
  m_ObjectHideFlags: 0
  m_CorrespondingSourceObject: {fileID: 0}
  m_PrefabInstance: {fileID: 0}
  m_PrefabAsset: {fileID: 0}
  serializedVersion: 6
  m_Component:
  - component: {fileID: 2083908462879253995}
  m_Layer: 0
  m_Name: PT_Medieval_Male_Neck
  m_TagString: Untagged
  m_Icon: {fileID: 0}
  m_NavMeshLayer: 0
  m_StaticEditorFlags: 0
  m_IsActive: 1
--- !u!4 &2083908462879253995
Transform:
  m_ObjectHideFlags: 0
  m_CorrespondingSourceObject: {fileID: 0}
  m_PrefabInstance: {fileID: 0}
  m_PrefabAsset: {fileID: 0}
  m_GameObject: {fileID: 6834741768592828781}
  m_LocalRotation: {x: 0.054553222, y: -0, z: -0, w: 0.9985109}
  m_LocalPosition: {x: -0, y: 0.1300481, z: -0.00507156}
  m_LocalScale: {x: 1, y: 1, z: 1}
  m_Children:
  - {fileID: 7165733193108801435}
  m_Father: {fileID: 1072987915240726049}
  m_RootOrder: 4
  m_LocalEulerAnglesHint: {x: 0, y: 0, z: 0}
--- !u!1 &6900780530644123680
GameObject:
  m_ObjectHideFlags: 0
  m_CorrespondingSourceObject: {fileID: 0}
  m_PrefabInstance: {fileID: 0}
  m_PrefabAsset: {fileID: 0}
  serializedVersion: 6
  m_Component:
  - component: {fileID: 1072987915240726049}
  m_Layer: 0
  m_Name: PT_Medieval_Male_Spine3
  m_TagString: Untagged
  m_Icon: {fileID: 0}
  m_NavMeshLayer: 0
  m_StaticEditorFlags: 0
  m_IsActive: 1
--- !u!4 &1072987915240726049
Transform:
  m_ObjectHideFlags: 0
  m_CorrespondingSourceObject: {fileID: 0}
  m_PrefabInstance: {fileID: 0}
  m_PrefabAsset: {fileID: 0}
  m_GameObject: {fileID: 6900780530644123680}
  m_LocalRotation: {x: 0, y: -0, z: -0, w: 1}
  m_LocalPosition: {x: -0, y: 0.0919023, z: -0.0129490895}
  m_LocalScale: {x: 1, y: 1, z: 1}
  m_Children:
  - {fileID: 1232837664396209926}
  - {fileID: 5796227136301442986}
  - {fileID: 7780803645933152450}
  - {fileID: 8673729838612409689}
  - {fileID: 2083908462879253995}
  - {fileID: 7364605748430159936}
  - {fileID: 1606129319373810601}
  - {fileID: 8794461944997976966}
  m_Father: {fileID: 8838077119061227895}
  m_RootOrder: 0
  m_LocalEulerAnglesHint: {x: 0, y: 0, z: 0}
--- !u!1 &6920854993886262622
GameObject:
  m_ObjectHideFlags: 0
  m_CorrespondingSourceObject: {fileID: 0}
  m_PrefabInstance: {fileID: 0}
  m_PrefabAsset: {fileID: 0}
  serializedVersion: 6
  m_Component:
  - component: {fileID: 5374069516216041153}
  m_Layer: 0
  m_Name: PT_Medieval_Male_LeftHandIndex3
  m_TagString: Untagged
  m_Icon: {fileID: 0}
  m_NavMeshLayer: 0
  m_StaticEditorFlags: 0
  m_IsActive: 1
--- !u!4 &5374069516216041153
Transform:
  m_ObjectHideFlags: 0
  m_CorrespondingSourceObject: {fileID: 0}
  m_PrefabInstance: {fileID: 0}
  m_PrefabAsset: {fileID: 0}
  m_GameObject: {fileID: 6920854993886262622}
  m_LocalRotation: {x: 0.16408321, y: -1.6850629e-16, z: 8.653025e-17, w: 0.9864465}
  m_LocalPosition: {x: -0.0013015639, y: 0.03672187, z: 0.0035456868}
  m_LocalScale: {x: 1, y: 1, z: 1}
  m_Children: []
  m_Father: {fileID: 7077671656414788194}
  m_RootOrder: 0
  m_LocalEulerAnglesHint: {x: 0, y: 0, z: 0}
--- !u!1 &6941461804182887541
GameObject:
  m_ObjectHideFlags: 0
  m_CorrespondingSourceObject: {fileID: 0}
  m_PrefabInstance: {fileID: 0}
  m_PrefabAsset: {fileID: 0}
  serializedVersion: 6
  m_Component:
  - component: {fileID: 2896417099342366386}
  m_Layer: 0
  m_Name: PT_Medieval_Male_Second_Weapon_slot
  m_TagString: Untagged
  m_Icon: {fileID: 0}
  m_NavMeshLayer: 0
  m_StaticEditorFlags: 0
  m_IsActive: 1
--- !u!4 &2896417099342366386
Transform:
  m_ObjectHideFlags: 0
  m_CorrespondingSourceObject: {fileID: 0}
  m_PrefabInstance: {fileID: 0}
  m_PrefabAsset: {fileID: 0}
  m_GameObject: {fileID: 6941461804182887541}
  m_LocalRotation: {x: 0.896631, y: 0.15798464, z: 0.41029173, w: 0.052482553}
  m_LocalPosition: {x: -0.06137928, y: -0.02305119, z: 0.095135055}
  m_LocalScale: {x: 1, y: 1, z: 1}
  m_Children: []
  m_Father: {fileID: 8034860563553262300}
  m_RootOrder: 1
  m_LocalEulerAnglesHint: {x: 0, y: 0, z: 0}
--- !u!1 &7117185795891880256
GameObject:
  m_ObjectHideFlags: 0
  m_CorrespondingSourceObject: {fileID: 0}
  m_PrefabInstance: {fileID: 0}
  m_PrefabAsset: {fileID: 0}
  serializedVersion: 6
  m_Component:
  - component: {fileID: 8257999770298833228}
  m_Layer: 0
  m_Name: PT_Medieval_Male_RightHandRing3
  m_TagString: Untagged
  m_Icon: {fileID: 0}
  m_NavMeshLayer: 0
  m_StaticEditorFlags: 0
  m_IsActive: 1
--- !u!4 &8257999770298833228
Transform:
  m_ObjectHideFlags: 0
  m_CorrespondingSourceObject: {fileID: 0}
  m_PrefabInstance: {fileID: 0}
  m_PrefabAsset: {fileID: 0}
  m_GameObject: {fileID: 7117185795891880256}
  m_LocalRotation: {x: 0.041252065, y: -2.7479395e-17, z: -1.545716e-17, w: 0.9991488}
  m_LocalPosition: {x: 0.003418394, y: -0.036755748, z: -0.003168397}
  m_LocalScale: {x: 1, y: 1, z: 1}
  m_Children: []
  m_Father: {fileID: 4280079281931755176}
  m_RootOrder: 0
  m_LocalEulerAnglesHint: {x: 0, y: 0, z: 0}
--- !u!1 &7215242674034482348
GameObject:
  m_ObjectHideFlags: 0
  m_CorrespondingSourceObject: {fileID: 0}
  m_PrefabInstance: {fileID: 0}
  m_PrefabAsset: {fileID: 0}
  serializedVersion: 6
  m_Component:
  - component: {fileID: 928054020610740876}
  m_Layer: 0
  m_Name: PT_Medieval_Male_LeftHandIndex1
  m_TagString: Untagged
  m_Icon: {fileID: 0}
  m_NavMeshLayer: 0
  m_StaticEditorFlags: 0
  m_IsActive: 1
--- !u!4 &928054020610740876
Transform:
  m_ObjectHideFlags: 0
  m_CorrespondingSourceObject: {fileID: 0}
  m_PrefabInstance: {fileID: 0}
  m_PrefabAsset: {fileID: 0}
  m_GameObject: {fileID: 7215242674034482348}
  m_LocalRotation: {x: 0.055548213, y: -0.0029377441, z: -0.05273081, w: 0.99705833}
  m_LocalPosition: {x: 0.03389916, y: 0.09278098, z: -0.005699886}
  m_LocalScale: {x: 1, y: 1, z: 1}
  m_Children:
  - {fileID: 7077671656414788194}
  m_Father: {fileID: 1899237481613579145}
  m_RootOrder: 0
  m_LocalEulerAnglesHint: {x: 0, y: 0, z: 0}
--- !u!1 &7302518941917734676
GameObject:
  m_ObjectHideFlags: 0
  m_CorrespondingSourceObject: {fileID: 0}
  m_PrefabInstance: {fileID: 0}
  m_PrefabAsset: {fileID: 0}
  serializedVersion: 6
  m_Component:
  - component: {fileID: 1193942796926872507}
  - component: {fileID: 2233219824261420944}
  m_Layer: 0
  m_Name: PT_Medieval_Male_Peasant_01_lower
  m_TagString: Untagged
  m_Icon: {fileID: 0}
  m_NavMeshLayer: 0
  m_StaticEditorFlags: 0
  m_IsActive: 1
--- !u!4 &1193942796926872507
Transform:
  m_ObjectHideFlags: 0
  m_CorrespondingSourceObject: {fileID: 0}
  m_PrefabInstance: {fileID: 0}
  m_PrefabAsset: {fileID: 0}
  m_GameObject: {fileID: 7302518941917734676}
  m_LocalRotation: {x: 0, y: -0, z: -0, w: 1}
  m_LocalPosition: {x: -0, y: 0, z: 0}
  m_LocalScale: {x: 1, y: 1, z: 1}
  m_Children: []
  m_Father: {fileID: 4838729760928824756}
  m_RootOrder: 5
  m_LocalEulerAnglesHint: {x: 0, y: 0, z: 0}
--- !u!137 &2233219824261420944
SkinnedMeshRenderer:
  m_ObjectHideFlags: 0
  m_CorrespondingSourceObject: {fileID: 0}
  m_PrefabInstance: {fileID: 0}
  m_PrefabAsset: {fileID: 0}
  m_GameObject: {fileID: 7302518941917734676}
  m_Enabled: 1
  m_CastShadows: 1
  m_ReceiveShadows: 1
  m_DynamicOccludee: 1
  m_MotionVectors: 1
  m_LightProbeUsage: 1
  m_ReflectionProbeUsage: 1
  m_RayTracingMode: 0
  m_RenderingLayerMask: 1
  m_RendererPriority: 0
  m_Materials:
  - {fileID: 2100000, guid: c79855c6f54ed954293d041acc3120a8, type: 2}
  m_StaticBatchInfo:
    firstSubMesh: 0
    subMeshCount: 0
  m_StaticBatchRoot: {fileID: 0}
  m_ProbeAnchor: {fileID: 0}
  m_LightProbeVolumeOverride: {fileID: 0}
  m_ScaleInLightmap: 1
  m_ReceiveGI: 1
  m_PreserveUVs: 0
  m_IgnoreNormalsForChartDetection: 0
  m_ImportantGI: 0
  m_StitchLightmapSeams: 1
  m_SelectedEditorRenderState: 3
  m_MinimumChartSize: 4
  m_AutoUVMaxDistance: 0.5
  m_AutoUVMaxAngle: 89
  m_LightmapParameters: {fileID: 0}
  m_SortingLayerID: 0
  m_SortingLayer: 0
  m_SortingOrder: 0
  serializedVersion: 2
  m_Quality: 0
  m_UpdateWhenOffscreen: 0
  m_SkinnedMotionVectors: 1
  m_Mesh: {fileID: -8516148956769557160, guid: bd83b7da59c20464288209a8d297eb23, type: 3}
  m_Bones:
  - {fileID: 1938258143868302625}
  - {fileID: 2213934051885706106}
  - {fileID: 8838077119061227895}
  - {fileID: 1072987915240726049}
  - {fileID: 2083908462879253995}
  - {fileID: 7165733193108801435}
  - {fileID: 9065392670172053777}
  - {fileID: 8794461944997976966}
  - {fileID: 68885027530652865}
  - {fileID: 5114048528780718263}
  - {fileID: 1441933759282123437}
  - {fileID: 7690087476972658941}
  - {fileID: 5449621038571580251}
  - {fileID: 8458678598350430627}
  - {fileID: 60140218965175389}
  - {fileID: 8237444189202554715}
  - {fileID: 7886771294037442256}
  - {fileID: 9067571933725142066}
  - {fileID: 8458283327961498755}
  - {fileID: 1048202198342786474}
  - {fileID: 1812888332891644609}
  - {fileID: 4280079281931755176}
  - {fileID: 8257999770298833228}
  - {fileID: 8722219391217300777}
  - {fileID: 5141777383860995727}
  - {fileID: 741901621801399933}
  - {fileID: 5796227136301442986}
  - {fileID: 3467435945612739511}
  - {fileID: 7107152472988035247}
  - {fileID: 1899237481613579145}
  - {fileID: 1072956195028648943}
  - {fileID: 4537286263251977066}
  - {fileID: 5851266236970932624}
  - {fileID: 928054020610740876}
  - {fileID: 7077671656414788194}
  - {fileID: 5374069516216041153}
  - {fileID: 4697289132854034157}
  - {fileID: 2067485018715366083}
  - {fileID: 2028020971456363666}
  - {fileID: 8994295638053101437}
  - {fileID: 8181709867746393275}
  - {fileID: 5252675849936356531}
  - {fileID: 2494741598589357588}
  - {fileID: 1313490858972263176}
  - {fileID: 2919075953274030280}
  - {fileID: 1606129319373810601}
  - {fileID: 2227139462160096108}
  - {fileID: 75667518262404879}
  - {fileID: 5903162699863436279}
  - {fileID: 1232837664396209926}
  - {fileID: 2719996790561535148}
  - {fileID: 1233032819600758446}
  - {fileID: 6228555187739366079}
  - {fileID: 2939016326458881785}
  - {fileID: 3515565283368538990}
  - {fileID: 3382376877176477235}
  - {fileID: 6335622253722265381}
  - {fileID: 8034860563553262300}
  - {fileID: 1050769216725836808}
  - {fileID: 5951413753473552764}
  - {fileID: 3357301853925434576}
  m_BlendShapeWeights: []
  m_RootBone: {fileID: 1938258143868302625}
  m_AABB:
    m_Center: {x: 0.00005620718, y: -0.58647937, z: 0.033938855}
    m_Extent: {x: 0.19994998, y: 0.55929524, z: 0.30471426}
  m_DirtyAABB: 0
--- !u!1 &7338967985068739344
GameObject:
  m_ObjectHideFlags: 0
  m_CorrespondingSourceObject: {fileID: 0}
  m_PrefabInstance: {fileID: 0}
  m_PrefabAsset: {fileID: 0}
  serializedVersion: 6
  m_Component:
  - component: {fileID: 4038902097694484256}
  - component: {fileID: 1193549931129785315}
  m_Layer: 0
  m_Name: PT_Medieval_Male_Naked_head
  m_TagString: Untagged
  m_Icon: {fileID: 0}
  m_NavMeshLayer: 0
  m_StaticEditorFlags: 0
  m_IsActive: 1
--- !u!4 &4038902097694484256
Transform:
  m_ObjectHideFlags: 0
  m_CorrespondingSourceObject: {fileID: 0}
  m_PrefabInstance: {fileID: 0}
  m_PrefabAsset: {fileID: 0}
  m_GameObject: {fileID: 7338967985068739344}
  m_LocalRotation: {x: 0, y: -0, z: -0, w: 1}
  m_LocalPosition: {x: -0, y: 0, z: 0}
  m_LocalScale: {x: 1, y: 1, z: 1}
  m_Children: []
  m_Father: {fileID: 4838729760928824756}
  m_RootOrder: 1
  m_LocalEulerAnglesHint: {x: 0, y: 0, z: 0}
--- !u!137 &1193549931129785315
SkinnedMeshRenderer:
  m_ObjectHideFlags: 0
  m_CorrespondingSourceObject: {fileID: 0}
  m_PrefabInstance: {fileID: 0}
  m_PrefabAsset: {fileID: 0}
  m_GameObject: {fileID: 7338967985068739344}
  m_Enabled: 1
  m_CastShadows: 1
  m_ReceiveShadows: 1
  m_DynamicOccludee: 1
  m_MotionVectors: 1
  m_LightProbeUsage: 1
  m_ReflectionProbeUsage: 1
  m_RayTracingMode: 0
  m_RenderingLayerMask: 1
  m_RendererPriority: 0
  m_Materials:
  - {fileID: 2100000, guid: c79855c6f54ed954293d041acc3120a8, type: 2}
  m_StaticBatchInfo:
    firstSubMesh: 0
    subMeshCount: 0
  m_StaticBatchRoot: {fileID: 0}
  m_ProbeAnchor: {fileID: 0}
  m_LightProbeVolumeOverride: {fileID: 0}
  m_ScaleInLightmap: 1
  m_ReceiveGI: 1
  m_PreserveUVs: 0
  m_IgnoreNormalsForChartDetection: 0
  m_ImportantGI: 0
  m_StitchLightmapSeams: 1
  m_SelectedEditorRenderState: 3
  m_MinimumChartSize: 4
  m_AutoUVMaxDistance: 0.5
  m_AutoUVMaxAngle: 89
  m_LightmapParameters: {fileID: 0}
  m_SortingLayerID: 0
  m_SortingLayer: 0
  m_SortingOrder: 0
  serializedVersion: 2
  m_Quality: 0
  m_UpdateWhenOffscreen: 0
  m_SkinnedMotionVectors: 1
  m_Mesh: {fileID: 1374190923804306952, guid: bd83b7da59c20464288209a8d297eb23, type: 3}
  m_Bones:
  - {fileID: 1938258143868302625}
  - {fileID: 2213934051885706106}
  - {fileID: 8838077119061227895}
  - {fileID: 1072987915240726049}
  - {fileID: 2083908462879253995}
  - {fileID: 7165733193108801435}
  - {fileID: 9065392670172053777}
  - {fileID: 8794461944997976966}
  - {fileID: 68885027530652865}
  - {fileID: 5114048528780718263}
  - {fileID: 1441933759282123437}
  - {fileID: 7690087476972658941}
  - {fileID: 5449621038571580251}
  - {fileID: 8458678598350430627}
  - {fileID: 60140218965175389}
  - {fileID: 8237444189202554715}
  - {fileID: 7886771294037442256}
  - {fileID: 9067571933725142066}
  - {fileID: 8458283327961498755}
  - {fileID: 1048202198342786474}
  - {fileID: 1812888332891644609}
  - {fileID: 4280079281931755176}
  - {fileID: 8257999770298833228}
  - {fileID: 8722219391217300777}
  - {fileID: 5141777383860995727}
  - {fileID: 741901621801399933}
  - {fileID: 5796227136301442986}
  - {fileID: 3467435945612739511}
  - {fileID: 7107152472988035247}
  - {fileID: 1899237481613579145}
  - {fileID: 1072956195028648943}
  - {fileID: 4537286263251977066}
  - {fileID: 5851266236970932624}
  - {fileID: 928054020610740876}
  - {fileID: 7077671656414788194}
  - {fileID: 5374069516216041153}
  - {fileID: 4697289132854034157}
  - {fileID: 2067485018715366083}
  - {fileID: 2028020971456363666}
  - {fileID: 8994295638053101437}
  - {fileID: 8181709867746393275}
  - {fileID: 5252675849936356531}
  - {fileID: 2494741598589357588}
  - {fileID: 1313490858972263176}
  - {fileID: 2919075953274030280}
  - {fileID: 1606129319373810601}
  - {fileID: 2227139462160096108}
  - {fileID: 75667518262404879}
  - {fileID: 5903162699863436279}
  - {fileID: 1232837664396209926}
  - {fileID: 2719996790561535148}
  - {fileID: 1233032819600758446}
  - {fileID: 6228555187739366079}
  - {fileID: 2939016326458881785}
  - {fileID: 3515565283368538990}
  - {fileID: 3382376877176477235}
  - {fileID: 6335622253722265381}
  - {fileID: 8034860563553262300}
  - {fileID: 1050769216725836808}
  - {fileID: 5951413753473552764}
  - {fileID: 3357301853925434576}
  m_BlendShapeWeights: []
  m_RootBone: {fileID: 1938258143868302625}
  m_AABB:
    m_Center: {x: 0, y: 0.5223603, z: -0.025664032}
    m_Extent: {x: 0.10848932, y: 0.24197814, z: 0.1374451}
  m_DirtyAABB: 0
--- !u!1 &7351231651959847384
GameObject:
  m_ObjectHideFlags: 0
  m_CorrespondingSourceObject: {fileID: 0}
  m_PrefabInstance: {fileID: 0}
  m_PrefabAsset: {fileID: 0}
  serializedVersion: 6
  m_Component:
  - component: {fileID: 60140218965175389}
  m_Layer: 0
  m_Name: PT_Medieval_Male_RightHandIndex1
  m_TagString: Untagged
  m_Icon: {fileID: 0}
  m_NavMeshLayer: 0
  m_StaticEditorFlags: 0
  m_IsActive: 1
--- !u!4 &60140218965175389
Transform:
  m_ObjectHideFlags: 0
  m_CorrespondingSourceObject: {fileID: 0}
  m_PrefabInstance: {fileID: 0}
  m_PrefabAsset: {fileID: 0}
  m_GameObject: {fileID: 7351231651959847384}
  m_LocalRotation: {x: 0.055548213, y: -0.0029377441, z: -0.05273081, w: 0.99705833}
  m_LocalPosition: {x: -0.03389916, y: -0.09278098, z: 0.005699886}
  m_LocalScale: {x: 1, y: 1, z: 1}
  m_Children:
  - {fileID: 8237444189202554715}
  m_Father: {fileID: 1441933759282123437}
  m_RootOrder: 1
  m_LocalEulerAnglesHint: {x: 0, y: 0, z: 0}
--- !u!1 &7397934233138867147
GameObject:
  m_ObjectHideFlags: 0
  m_CorrespondingSourceObject: {fileID: 0}
  m_PrefabInstance: {fileID: 0}
  m_PrefabAsset: {fileID: 0}
  serializedVersion: 6
  m_Component:
  - component: {fileID: 3382376877176477235}
  m_Layer: 0
  m_Name: PT_Medieval_Male_LeftFoot
  m_TagString: Untagged
  m_Icon: {fileID: 0}
  m_NavMeshLayer: 0
  m_StaticEditorFlags: 0
  m_IsActive: 1
--- !u!4 &3382376877176477235
Transform:
  m_ObjectHideFlags: 0
  m_CorrespondingSourceObject: {fileID: 0}
  m_PrefabInstance: {fileID: 0}
  m_PrefabAsset: {fileID: 0}
  m_GameObject: {fileID: 7397934233138867147}
  m_LocalRotation: {x: 0.48822117, y: 0.0007726034, z: -0.00043221368, w: 0.87271947}
  m_LocalPosition: {x: -0.00006126998, y: 0.4042528, z: -0.013341449}
  m_LocalScale: {x: 1, y: 1, z: 1}
  m_Children:
  - {fileID: 6335622253722265381}
  m_Father: {fileID: 3515565283368538990}
  m_RootOrder: 0
  m_LocalEulerAnglesHint: {x: 0, y: 0, z: 0}
--- !u!1 &7471190619262984110
GameObject:
  m_ObjectHideFlags: 0
  m_CorrespondingSourceObject: {fileID: 0}
  m_PrefabInstance: {fileID: 0}
  m_PrefabAsset: {fileID: 0}
  serializedVersion: 6
  m_Component:
  - component: {fileID: 4537286263251977066}
  m_Layer: 0
  m_Name: PT_Medieval_Male_LeftHandThumb2
  m_TagString: Untagged
  m_Icon: {fileID: 0}
  m_NavMeshLayer: 0
  m_StaticEditorFlags: 0
  m_IsActive: 1
--- !u!4 &4537286263251977066
Transform:
  m_ObjectHideFlags: 0
  m_CorrespondingSourceObject: {fileID: 0}
  m_PrefabInstance: {fileID: 0}
  m_PrefabAsset: {fileID: 0}
  m_GameObject: {fileID: 7471190619262984110}
  m_LocalRotation: {x: 0.038922638, y: 6.4819217e-18, z: 3.0282728e-17, w: 0.99924225}
  m_LocalPosition: {x: 0.009661474, y: 0.06264963, z: 0.008649425}
  m_LocalScale: {x: 1, y: 1, z: 1}
  m_Children:
  - {fileID: 5851266236970932624}
  m_Father: {fileID: 1072956195028648943}
  m_RootOrder: 0
  m_LocalEulerAnglesHint: {x: 0, y: 0, z: 0}
--- !u!1 &7493378066955193667
GameObject:
  m_ObjectHideFlags: 0
  m_CorrespondingSourceObject: {fileID: 0}
  m_PrefabInstance: {fileID: 0}
  m_PrefabAsset: {fileID: 0}
  serializedVersion: 6
  m_Component:
  - component: {fileID: 2669092999203212703}
  m_Layer: 0
  m_Name: PT_Medieval_Male_Large_Shield_slot
  m_TagString: Untagged
  m_Icon: {fileID: 0}
  m_NavMeshLayer: 0
  m_StaticEditorFlags: 0
  m_IsActive: 1
--- !u!4 &2669092999203212703
Transform:
  m_ObjectHideFlags: 0
  m_CorrespondingSourceObject: {fileID: 0}
  m_PrefabInstance: {fileID: 0}
  m_PrefabAsset: {fileID: 0}
  m_GameObject: {fileID: 7493378066955193667}
  m_LocalRotation: {x: 0.6575927, y: 0.6769271, z: 0.2979379, w: -0.14343852}
  m_LocalPosition: {x: -0.0013079799, y: 0.3861415, z: 0.0067237346}
  m_LocalScale: {x: 1, y: 1, z: 1}
  m_Children: []
  m_Father: {fileID: 7107152472988035247}
  m_RootOrder: 0
  m_LocalEulerAnglesHint: {x: 0, y: 0, z: 0}
--- !u!1 &7502723450181979893
GameObject:
  m_ObjectHideFlags: 0
  m_CorrespondingSourceObject: {fileID: 0}
  m_PrefabInstance: {fileID: 0}
  m_PrefabAsset: {fileID: 0}
  serializedVersion: 6
  m_Component:
  - component: {fileID: 5851266236970932624}
  m_Layer: 0
  m_Name: PT_Medieval_Male_LeftHandThumb3
  m_TagString: Untagged
  m_Icon: {fileID: 0}
  m_NavMeshLayer: 0
  m_StaticEditorFlags: 0
  m_IsActive: 1
--- !u!4 &5851266236970932624
Transform:
  m_ObjectHideFlags: 0
  m_CorrespondingSourceObject: {fileID: 0}
  m_PrefabInstance: {fileID: 0}
  m_PrefabAsset: {fileID: 0}
  m_GameObject: {fileID: 7502723450181979893}
  m_LocalRotation: {x: -0.07131409, y: -1.1876181e-17, z: -5.2453137e-17, w: 0.9974539}
  m_LocalPosition: {x: -0.0113181, y: 0.038020678, z: -0.00014049829}
  m_LocalScale: {x: 1, y: 1, z: 1}
  m_Children: []
  m_Father: {fileID: 4537286263251977066}
  m_RootOrder: 0
  m_LocalEulerAnglesHint: {x: 0, y: 0, z: 0}
--- !u!1 &7637717376307727497
GameObject:
  m_ObjectHideFlags: 0
  m_CorrespondingSourceObject: {fileID: 0}
  m_PrefabInstance: {fileID: 0}
  m_PrefabAsset: {fileID: 0}
  serializedVersion: 6
  m_Component:
  - component: {fileID: 8722219391217300777}
  m_Layer: 0
  m_Name: PT_Medieval_Male_RightHandPinky1
  m_TagString: Untagged
  m_Icon: {fileID: 0}
  m_NavMeshLayer: 0
  m_StaticEditorFlags: 0
  m_IsActive: 1
--- !u!4 &8722219391217300777
Transform:
  m_ObjectHideFlags: 0
  m_CorrespondingSourceObject: {fileID: 0}
  m_PrefabInstance: {fileID: 0}
  m_PrefabAsset: {fileID: 0}
  m_GameObject: {fileID: 7637717376307727497}
  m_LocalRotation: {x: 0.20583394, y: 0.007591522, z: 0.03606642, w: 0.97789264}
  m_LocalPosition: {x: 0.04289961, y: -0.094950385, z: 0.003127618}
  m_LocalScale: {x: 1, y: 1, z: 1}
  m_Children:
  - {fileID: 5141777383860995727}
  m_Father: {fileID: 1441933759282123437}
  m_RootOrder: 3
  m_LocalEulerAnglesHint: {x: 0, y: 0, z: 0}
--- !u!1 &7683191174823467247
GameObject:
  m_ObjectHideFlags: 0
  m_CorrespondingSourceObject: {fileID: 0}
  m_PrefabInstance: {fileID: 0}
  m_PrefabAsset: {fileID: 0}
  serializedVersion: 6
  m_Component:
  - component: {fileID: 5951413753473552764}
  m_Layer: 0
  m_Name: PT_Medieval_Male_RightFoot
  m_TagString: Untagged
  m_Icon: {fileID: 0}
  m_NavMeshLayer: 0
  m_StaticEditorFlags: 0
  m_IsActive: 1
--- !u!4 &5951413753473552764
Transform:
  m_ObjectHideFlags: 0
  m_CorrespondingSourceObject: {fileID: 0}
  m_PrefabInstance: {fileID: 0}
  m_PrefabAsset: {fileID: 0}
  m_GameObject: {fileID: 7683191174823467247}
  m_LocalRotation: {x: 0.48185918, y: -0.0007733488, z: 0.00042527358, w: 0.87624824}
  m_LocalPosition: {x: 0.00006047429, y: 0.4042705, z: -0.013081949}
  m_LocalScale: {x: 1, y: 1, z: 1}
  m_Children:
  - {fileID: 3357301853925434576}
  m_Father: {fileID: 1050769216725836808}
  m_RootOrder: 0
  m_LocalEulerAnglesHint: {x: 0, y: 0, z: 0}
--- !u!1 &7941572678123122467
GameObject:
  m_ObjectHideFlags: 0
  m_CorrespondingSourceObject: {fileID: 0}
  m_PrefabInstance: {fileID: 0}
  m_PrefabAsset: {fileID: 0}
  serializedVersion: 6
  m_Component:
  - component: {fileID: 5449621038571580251}
  m_Layer: 0
  m_Name: PT_Medieval_Male_RightHandThumb2
  m_TagString: Untagged
  m_Icon: {fileID: 0}
  m_NavMeshLayer: 0
  m_StaticEditorFlags: 0
  m_IsActive: 1
--- !u!4 &5449621038571580251
Transform:
  m_ObjectHideFlags: 0
  m_CorrespondingSourceObject: {fileID: 0}
  m_PrefabInstance: {fileID: 0}
  m_PrefabAsset: {fileID: 0}
  m_GameObject: {fileID: 7941572678123122467}
  m_LocalRotation: {x: 0.038922638, y: -3.889153e-17, z: -9.874802e-17, w: 0.99924225}
  m_LocalPosition: {x: -0.009661474, y: -0.06264963, z: -0.008649425}
  m_LocalScale: {x: 1, y: 1, z: 1}
  m_Children:
  - {fileID: 8458678598350430627}
  m_Father: {fileID: 7690087476972658941}
  m_RootOrder: 0
  m_LocalEulerAnglesHint: {x: 0, y: 0, z: 0}
--- !u!1 &8046497715410049446
GameObject:
  m_ObjectHideFlags: 0
  m_CorrespondingSourceObject: {fileID: 0}
  m_PrefabInstance: {fileID: 0}
  m_PrefabAsset: {fileID: 0}
  serializedVersion: 6
  m_Component:
  - component: {fileID: 7107152472988035247}
  m_Layer: 0
  m_Name: PT_Medieval_Male_LeftForeArm
  m_TagString: Untagged
  m_Icon: {fileID: 0}
  m_NavMeshLayer: 0
  m_StaticEditorFlags: 0
  m_IsActive: 1
--- !u!4 &7107152472988035247
Transform:
  m_ObjectHideFlags: 0
  m_CorrespondingSourceObject: {fileID: 0}
  m_PrefabInstance: {fileID: 0}
  m_PrefabAsset: {fileID: 0}
  m_GameObject: {fileID: 8046497715410049446}
  m_LocalRotation: {x: -0.119477406, y: 0.004352882, z: -0.03614738, w: 0.99216914}
  m_LocalPosition: {x: -0.001688953, y: 0.2694025, z: -0.03728908}
  m_LocalScale: {x: 1, y: 1, z: 1}
  m_Children:
  - {fileID: 2669092999203212703}
  - {fileID: 4789964776914104474}
  - {fileID: 1899237481613579145}
  - {fileID: 758512460691861090}
  - {fileID: 8946314550846146408}
  m_Father: {fileID: 3467435945612739511}
  m_RootOrder: 0
  m_LocalEulerAnglesHint: {x: 0, y: 0, z: 0}
--- !u!1 &8167633847695615023
GameObject:
  m_ObjectHideFlags: 0
  m_CorrespondingSourceObject: {fileID: 0}
  m_PrefabInstance: {fileID: 0}
  m_PrefabAsset: {fileID: 0}
  serializedVersion: 6
  m_Component:
  - component: {fileID: 576914360995167947}
  - component: {fileID: 5440654401288722954}
  m_Layer: 0
  m_Name: PT_Medieval_Male_Peasant_01_upper
  m_TagString: Untagged
  m_Icon: {fileID: 0}
  m_NavMeshLayer: 0
  m_StaticEditorFlags: 0
  m_IsActive: 1
--- !u!4 &576914360995167947
Transform:
  m_ObjectHideFlags: 0
  m_CorrespondingSourceObject: {fileID: 0}
  m_PrefabInstance: {fileID: 0}
  m_PrefabAsset: {fileID: 0}
  m_GameObject: {fileID: 8167633847695615023}
  m_LocalRotation: {x: 0, y: -0, z: -0, w: 1}
  m_LocalPosition: {x: -0, y: 0, z: 0.007}
  m_LocalScale: {x: 1, y: 1, z: 1}
  m_Children: []
  m_Father: {fileID: 4838729760928824756}
  m_RootOrder: 6
  m_LocalEulerAnglesHint: {x: 0, y: 0, z: 0}
--- !u!137 &5440654401288722954
SkinnedMeshRenderer:
  m_ObjectHideFlags: 0
  m_CorrespondingSourceObject: {fileID: 0}
  m_PrefabInstance: {fileID: 0}
  m_PrefabAsset: {fileID: 0}
  m_GameObject: {fileID: 8167633847695615023}
  m_Enabled: 1
  m_CastShadows: 1
  m_ReceiveShadows: 1
  m_DynamicOccludee: 1
  m_MotionVectors: 1
  m_LightProbeUsage: 1
  m_ReflectionProbeUsage: 1
  m_RayTracingMode: 0
  m_RenderingLayerMask: 1
  m_RendererPriority: 0
  m_Materials:
  - {fileID: 2100000, guid: c79855c6f54ed954293d041acc3120a8, type: 2}
  m_StaticBatchInfo:
    firstSubMesh: 0
    subMeshCount: 0
  m_StaticBatchRoot: {fileID: 0}
  m_ProbeAnchor: {fileID: 0}
  m_LightProbeVolumeOverride: {fileID: 0}
  m_ScaleInLightmap: 1
  m_ReceiveGI: 1
  m_PreserveUVs: 0
  m_IgnoreNormalsForChartDetection: 0
  m_ImportantGI: 0
  m_StitchLightmapSeams: 1
  m_SelectedEditorRenderState: 3
  m_MinimumChartSize: 4
  m_AutoUVMaxDistance: 0.5
  m_AutoUVMaxAngle: 89
  m_LightmapParameters: {fileID: 0}
  m_SortingLayerID: 0
  m_SortingLayer: 0
  m_SortingOrder: 0
  serializedVersion: 2
  m_Quality: 0
  m_UpdateWhenOffscreen: 0
  m_SkinnedMotionVectors: 1
  m_Mesh: {fileID: 1135109106350512055, guid: bd83b7da59c20464288209a8d297eb23, type: 3}
  m_Bones:
  - {fileID: 1938258143868302625}
  - {fileID: 2213934051885706106}
  - {fileID: 8838077119061227895}
  - {fileID: 1072987915240726049}
  - {fileID: 2083908462879253995}
  - {fileID: 7165733193108801435}
  - {fileID: 9065392670172053777}
  - {fileID: 8794461944997976966}
  - {fileID: 68885027530652865}
  - {fileID: 5114048528780718263}
  - {fileID: 1441933759282123437}
  - {fileID: 7690087476972658941}
  - {fileID: 5449621038571580251}
  - {fileID: 8458678598350430627}
  - {fileID: 60140218965175389}
  - {fileID: 8237444189202554715}
  - {fileID: 7886771294037442256}
  - {fileID: 9067571933725142066}
  - {fileID: 8458283327961498755}
  - {fileID: 1048202198342786474}
  - {fileID: 1812888332891644609}
  - {fileID: 4280079281931755176}
  - {fileID: 8257999770298833228}
  - {fileID: 8722219391217300777}
  - {fileID: 5141777383860995727}
  - {fileID: 741901621801399933}
  - {fileID: 5796227136301442986}
  - {fileID: 3467435945612739511}
  - {fileID: 7107152472988035247}
  - {fileID: 1899237481613579145}
  - {fileID: 1072956195028648943}
  - {fileID: 4537286263251977066}
  - {fileID: 5851266236970932624}
  - {fileID: 928054020610740876}
  - {fileID: 7077671656414788194}
  - {fileID: 5374069516216041153}
  - {fileID: 4697289132854034157}
  - {fileID: 2067485018715366083}
  - {fileID: 2028020971456363666}
  - {fileID: 8994295638053101437}
  - {fileID: 8181709867746393275}
  - {fileID: 5252675849936356531}
  - {fileID: 2494741598589357588}
  - {fileID: 1313490858972263176}
  - {fileID: 2919075953274030280}
  - {fileID: 1606129319373810601}
  - {fileID: 2227139462160096108}
  - {fileID: 75667518262404879}
  - {fileID: 5903162699863436279}
  - {fileID: 1232837664396209926}
  - {fileID: 2719996790561535148}
  - {fileID: 1233032819600758446}
  - {fileID: 6228555187739366079}
  - {fileID: 2939016326458881785}
  - {fileID: 3515565283368538990}
  - {fileID: 3382376877176477235}
  - {fileID: 6335622253722265381}
  - {fileID: 8034860563553262300}
  - {fileID: 1050769216725836808}
  - {fileID: 5951413753473552764}
  - {fileID: 3357301853925434576}
  m_BlendShapeWeights: []
  m_RootBone: {fileID: 1938258143868302625}
  m_AABB:
    m_Center: {x: -0.000000029802322, y: 0.12663741, z: -0.043549433}
    m_Extent: {x: 0.9283502, y: 0.42608833, z: 0.21203683}
  m_DirtyAABB: 0
--- !u!1 &8569044924968647808
GameObject:
  m_ObjectHideFlags: 0
  m_CorrespondingSourceObject: {fileID: 0}
  m_PrefabInstance: {fileID: 0}
  m_PrefabAsset: {fileID: 0}
  serializedVersion: 6
  m_Component:
  - component: {fileID: 6335622253722265381}
  m_Layer: 0
  m_Name: PT_Medieval_Male_LeftToe
  m_TagString: Untagged
  m_Icon: {fileID: 0}
  m_NavMeshLayer: 0
  m_StaticEditorFlags: 0
  m_IsActive: 1
--- !u!4 &6335622253722265381
Transform:
  m_ObjectHideFlags: 0
  m_CorrespondingSourceObject: {fileID: 0}
  m_PrefabInstance: {fileID: 0}
  m_PrefabAsset: {fileID: 0}
  m_GameObject: {fileID: 8569044924968647808}
  m_LocalRotation: {x: 0.31465903, y: 0.08886059, z: -0.02960152, w: 0.94457257}
  m_LocalPosition: {x: 0.00003137395, y: 0.1436559, z: -0.011110391}
  m_LocalScale: {x: 1, y: 1, z: 1}
  m_Children: []
  m_Father: {fileID: 3382376877176477235}
  m_RootOrder: 0
  m_LocalEulerAnglesHint: {x: 0, y: 0, z: 0}
--- !u!1 &8635603587086228048
GameObject:
  m_ObjectHideFlags: 0
  m_CorrespondingSourceObject: {fileID: 0}
  m_PrefabInstance: {fileID: 0}
  m_PrefabAsset: {fileID: 0}
  serializedVersion: 6
  m_Component:
  - component: {fileID: 5796227136301442986}
  m_Layer: 0
  m_Name: PT_Medieval_Male_LeftShoulder
  m_TagString: Untagged
  m_Icon: {fileID: 0}
  m_NavMeshLayer: 0
  m_StaticEditorFlags: 0
  m_IsActive: 1
--- !u!4 &5796227136301442986
Transform:
  m_ObjectHideFlags: 0
  m_CorrespondingSourceObject: {fileID: 0}
  m_PrefabInstance: {fileID: 0}
  m_PrefabAsset: {fileID: 0}
  m_GameObject: {fileID: 8635603587086228048}
  m_LocalRotation: {x: 0.5548358, y: -0.4344652, z: 0.5720135, w: 0.4197592}
  m_LocalPosition: {x: -0.065679304, y: 0.065528035, z: -0.0067431717}
  m_LocalScale: {x: 1, y: 1, z: 1}
  m_Children:
  - {fileID: 3467435945612739511}
  m_Father: {fileID: 1072987915240726049}
  m_RootOrder: 1
  m_LocalEulerAnglesHint: {x: 0, y: 0, z: 0}
--- !u!1 &8674921595162723232
GameObject:
  m_ObjectHideFlags: 0
  m_CorrespondingSourceObject: {fileID: 0}
  m_PrefabInstance: {fileID: 0}
  m_PrefabAsset: {fileID: 0}
  serializedVersion: 6
  m_Component:
  - component: {fileID: 1899237481613579145}
  m_Layer: 0
  m_Name: PT_Medieval_Male_LeftHand
  m_TagString: Untagged
  m_Icon: {fileID: 0}
  m_NavMeshLayer: 0
  m_StaticEditorFlags: 0
  m_IsActive: 1
--- !u!4 &1899237481613579145
Transform:
  m_ObjectHideFlags: 0
  m_CorrespondingSourceObject: {fileID: 0}
  m_PrefabInstance: {fileID: 0}
  m_PrefabAsset: {fileID: 0}
  m_GameObject: {fileID: 8674921595162723232}
  m_LocalRotation: {x: 0.023698647, y: 0.02361606, z: 0.047987882, w: 0.99828744}
  m_LocalPosition: {x: 0.005954175, y: 0.2618942, z: 0.01294827}
  m_LocalScale: {x: 1, y: 1, z: 1}
  m_Children:
  - {fileID: 928054020610740876}
  - {fileID: 4697289132854034157}
  - {fileID: 2494741598589357588}
  - {fileID: 8994295638053101437}
  - {fileID: 1072956195028648943}
  m_Father: {fileID: 7107152472988035247}
  m_RootOrder: 2
  m_LocalEulerAnglesHint: {x: 0, y: 0, z: 0}
--- !u!1 &8829736803727134717
GameObject:
  m_ObjectHideFlags: 0
  m_CorrespondingSourceObject: {fileID: 0}
  m_PrefabInstance: {fileID: 0}
  m_PrefabAsset: {fileID: 0}
  serializedVersion: 6
  m_Component:
  - component: {fileID: 7077671656414788194}
  m_Layer: 0
  m_Name: PT_Medieval_Male_LeftHandIndex2
  m_TagString: Untagged
  m_Icon: {fileID: 0}
  m_NavMeshLayer: 0
  m_StaticEditorFlags: 0
  m_IsActive: 1
--- !u!4 &7077671656414788194
Transform:
  m_ObjectHideFlags: 0
  m_CorrespondingSourceObject: {fileID: 0}
  m_PrefabInstance: {fileID: 0}
  m_PrefabAsset: {fileID: 0}
  m_GameObject: {fileID: 8829736803727134717}
  m_LocalRotation: {x: 0.09512609, y: -1.0561118e-16, z: 3.432363e-17, w: 0.9954652}
  m_LocalPosition: {x: 0.0009678826, y: 0.04275242, z: -0.00105289}
  m_LocalScale: {x: 1, y: 1, z: 1}
  m_Children:
  - {fileID: 5374069516216041153}
  m_Father: {fileID: 928054020610740876}
  m_RootOrder: 0
  m_LocalEulerAnglesHint: {x: 0, y: 0, z: 0}
--- !u!1 &8913625056882713480
GameObject:
  m_ObjectHideFlags: 0
  m_CorrespondingSourceObject: {fileID: 0}
  m_PrefabInstance: {fileID: 0}
  m_PrefabAsset: {fileID: 0}
  serializedVersion: 6
  m_Component:
  - component: {fileID: 5114048528780718263}
  m_Layer: 0
  m_Name: PT_Medieval_Male_RightForeArm
  m_TagString: Untagged
  m_Icon: {fileID: 0}
  m_NavMeshLayer: 0
  m_StaticEditorFlags: 0
  m_IsActive: 1
--- !u!4 &5114048528780718263
Transform:
  m_ObjectHideFlags: 0
  m_CorrespondingSourceObject: {fileID: 0}
  m_PrefabInstance: {fileID: 0}
  m_PrefabAsset: {fileID: 0}
  m_GameObject: {fileID: 8913625056882713480}
  m_LocalRotation: {x: -0.119477406, y: 0.004352882, z: -0.03614738, w: 0.99216914}
  m_LocalPosition: {x: 0.0016893869, y: -0.2694033, z: 0.03728506}
  m_LocalScale: {x: 1, y: 1, z: 1}
  m_Children:
  - {fileID: 1441933759282123437}
  m_Father: {fileID: 68885027530652865}
  m_RootOrder: 0
  m_LocalEulerAnglesHint: {x: 0, y: 0, z: 0}
--- !u!1 &8951436415499895139
GameObject:
  m_ObjectHideFlags: 0
  m_CorrespondingSourceObject: {fileID: 0}
  m_PrefabInstance: {fileID: 0}
  m_PrefabAsset: {fileID: 0}
  serializedVersion: 6
  m_Component:
  - component: {fileID: 3357301853925434576}
  m_Layer: 0
  m_Name: PT_Medieval_Male_RightToe
  m_TagString: Untagged
  m_Icon: {fileID: 0}
  m_NavMeshLayer: 0
  m_StaticEditorFlags: 0
  m_IsActive: 1
--- !u!4 &3357301853925434576
Transform:
  m_ObjectHideFlags: 0
  m_CorrespondingSourceObject: {fileID: 0}
  m_PrefabInstance: {fileID: 0}
  m_PrefabAsset: {fileID: 0}
  m_GameObject: {fileID: 8951436415499895139}
  m_LocalRotation: {x: 0.32279554, y: -0.08884289, z: 0.03045037, w: 0.9417977}
  m_LocalPosition: {x: -0.000025255249, y: 0.1438179, z: -0.0088649485}
  m_LocalScale: {x: 1, y: 1, z: 1}
  m_Children: []
  m_Father: {fileID: 5951413753473552764}
  m_RootOrder: 0
  m_LocalEulerAnglesHint: {x: 0, y: 0, z: 0}
--- !u!1 &9156389344409680284
GameObject:
  m_ObjectHideFlags: 0
  m_CorrespondingSourceObject: {fileID: 0}
  m_PrefabInstance: {fileID: 0}
  m_PrefabAsset: {fileID: 0}
  serializedVersion: 6
  m_Component:
  - component: {fileID: 8673729838612409689}
  m_Layer: 0
  m_Name: PT_Medieval_Male_Medium_Bow_slot
  m_TagString: Untagged
  m_Icon: {fileID: 0}
  m_NavMeshLayer: 0
  m_StaticEditorFlags: 0
  m_IsActive: 1
--- !u!4 &8673729838612409689
Transform:
  m_ObjectHideFlags: 0
  m_CorrespondingSourceObject: {fileID: 0}
  m_PrefabInstance: {fileID: 0}
  m_PrefabAsset: {fileID: 0}
  m_GameObject: {fileID: 9156389344409680284}
  m_LocalRotation: {x: 0.41191617, y: -0.07447675, z: 0.87514323, w: 0.24269868}
  m_LocalPosition: {x: -0.06086113, y: -0.02398817, z: -0.16310368}
  m_LocalScale: {x: 1, y: 1, z: 1}
  m_Children: []
  m_Father: {fileID: 1072987915240726049}
  m_RootOrder: 3
  m_LocalEulerAnglesHint: {x: 0, y: 0, z: 0}
