%YAML 1.1
%TAG !u! tag:unity3d.com,2011:
--- !u!21 &2100000
Material:
  serializedVersion: 6
  m_ObjectHideFlags: 0
  m_CorrespondingSourceObject: {fileID: 0}
  m_PrefabInstance: {fileID: 0}
  m_PrefabAsset: {fileID: 0}
  m_Name: PT_Medieval_Modular_NPC_Material
  m_Shader: {fileID: 4800000, guid: 5fdb92501eac48d4a87329098a14e790, type: 3}
  m_ShaderKeywords: _METALICON_ON _METALLICON_ON _SMOOTHNESSON_ON
  m_LightmapFlags: 4
  m_EnableInstancingVariants: 0
  m_DoubleSidedGI: 0
  m_CustomRenderQueue: -1
  stringTagMap: {}
  disabledShaderPasses: []
  m_SavedProperties:
    serializedVersion: 3
    m_TexEnvs:
    - _COATOFARMSMASK:
        m_Texture: {fileID: 2800000, guid: d294e9544b9eca64188ea9d2482ea8a1, type: 3}
        m_Scale: {x: 1, y: 1}
        m_Offset: {x: 0, y: 0}
    - _TextureSample0:
        m_Texture: {fileID: 2800000, guid: 6bb85a5d9f66498428d452f1d30c189c, type: 3}
        m_Scale: {x: 1, y: 1}
        m_Offset: {x: 0, y: 0}
    - _TextureSample1:
        m_Texture: {fileID: 2800000, guid: 6bb85a5d9f66498428d452f1d30c189c, type: 3}
        m_Scale: {x: 1, y: 1}
        m_Offset: {x: 0, y: 0}
    - _TextureSample2:
        m_Texture: {fileID: 2800000, guid: f7390e40451b1494fbe67eb39e53d4ec, type: 3}
        m_Scale: {x: 1, y: 1}
        m_Offset: {x: 0, y: 0}
    - _TextureSample3:
        m_Texture: {fileID: 2800000, guid: f7390e40451b1494fbe67eb39e53d4ec, type: 3}
        m_Scale: {x: 1, y: 1}
        m_Offset: {x: 0, y: 0}
    - _texcoord:
        m_Texture: {fileID: 0}
        m_Scale: {x: 1, y: 1}
        m_Offset: {x: 0, y: 0}
    - _texcoord2:
        m_Texture: {fileID: 0}
        m_Scale: {x: 1, y: 1}
        m_Offset: {x: 0, y: 0}
    m_Floats:
    - _CEL1POWER: 0.15
    - _CEL1SIZE: 0.1
    - _CEL2POWER: 0.15
    - _CEL2SIZE: 0.4
    - _CEL3POWER: 0.15
    - _CEL3SIZE: 0.8
    - _EYESSMOOTHNESS: 0.7
    - _HAIRSMOOTHNESS: 0.185
    - _LEATHER1SMOOTHNESS: 0.3
    - _LEATHER2SMOOTHNESS: 0.3
    - _LEATHER3SMOOTHNESS: 0.3
    - _LEATHER4SMOOTHNES: 0.3
    - _LEATHER4SMOOTHNESS: 0
    - _LIPSSMOOTHNESS: 0.4
    - _METAL1METALLIC: 0.65
    - _METAL1SMOOTHNESS: 0.7
    - _METAL2METALLIC: 0.65
    - _METAL2SMOOTHNESS: 0.7
    - _METAL3METALLIC: 0.65
    - _METAL3SMOOTHNESS: 0.7
    - _METAL4METALLIC: 0.653
    - _METAL4SMOOTHNESS: 0.637
    - _MetalicON: 1
    - _MetalicOn: 1
    - _MetallicON: 1
    - _OCCLUSION: 0.5
    - _OTHERSMOOTHNESS: 0.504
    - _SCLERASMOOTHNESS: 0.5
    - _SKINSMOOTHNESS: 0
    - _SmoothnessOn: 1
    - __dirty: 0
    m_Colors:
    - _CEL1COLOR: {r: 1, g: 1, b: 1, a: 0}
    - _CEL2COLOR: {r: 1, g: 1, b: 1, a: 0}
    - _CEL3COLOR: {r: 1, g: 1, b: 1, a: 0}
    - _CLOTH1COLOR: {r: 0.2, g: 0.044601597, b: 0.019607842, a: 0}
    - _CLOTH1COLOR1: {r: 0, g: 0.1792453, b: 0.05062231, a: 0}
    - _CLOTH2COLOR: {r: 0.16834283, g: 0.2833042, b: 0.3679245, a: 0}
    - _CLOTH2COLOR1: {r: 1, g: 0, b: 0, a: 0}
    - _CLOTH3COLOR: {r: 0.120588236, g: 0.061764706, b: 0.051960785, a: 0}
    - _CLOTH3COLOR1: {r: 0.3962264, g: 0.3391397, b: 0.2710039, a: 0}
    - _CLOTH4COLOR: {r: 0.066037714, g: 0.0078851, b: 0, a: 0}
    - _CLOTH4COLOR1: {r: 0.2011392, g: 0.3773585, b: 0.3739074, a: 0}
    - _COATOFARMSCOLOR: {r: 1, g: 0, b: 0, a: 0}
    - _EYESCOLOR: {r: 0.0734529, g: 0.1320755, b: 0.05046281, a: 1}
    - _EYESCOLOR1: {r: 0.0734529, g: 0.1320755, b: 0.05046281, a: 1}
    - _FEATHERS1COLOR: {r: 0, g: 0, b: 0, a: 0}
    - _FEATHERS1COLOR1: {r: 0.7735849, g: 0.492613, b: 0.492613, a: 0}
    - _FEATHERS2COLOR: {r: 0.012745098, g: 0.0029411765, b: 0.0009803922, a: 0}
    - _FEATHERS2COLOR1: {r: 0.6792453, g: 0, b: 0, a: 0}
    - _HAIRCOLOR: {r: 0, g: 0, b: 0, a: 0}
    - _HAIRCOLOR1: {r: 1, g: 0, b: 0, a: 0}
    - _LEATHER1COLOR: {r: 0, g: 0, b: 0, a: 1}
    - _LEATHER1COLOR1: {r: 0.4811321, g: 0.2041155, b: 0.08851016, a: 1}
    - _LEATHER2COLOR: {r: 0.4245283, g: 0.190437, b: 0.09011215, a: 1}
    - _LEATHER2COLOR1: {r: 0.4245283, g: 0.190437, b: 0.09011215, a: 1}
    - _LEATHER3COLOR: {r: 0.1698113, g: 0.04637412, b: 0.02963688, a: 1}
    - _LEATHER3COLOR1: {r: 0.1698113, g: 0.04637412, b: 0.02963688, a: 1}
    - _LEATHER4COLOR: {r: 0, g: 0, b: 0, a: 0}
    - _LEATHER4COLOR1: {r: 0.1698113, g: 0.04637412, b: 0.02963688, a: 1}
    - _LIPSCOLOR: {r: 0.8301887, g: 0.3185886, b: 0.2780349, a: 0}
    - _LIPSCOLOR1: {r: 0.8301887, g: 0.3185886, b: 0.2780349, a: 0}
    - _METAL1COLOR: {r: 0.8792791, g: 0.9922886, b: 1.007606, a: 0}
    - _METAL1COLOR1: {r: 0.8792791, g: 0.9922886, b: 1.007606, a: 0}
    - _METAL2COLOR: {r: 0.4674706, g: 0.4677705, b: 0.5188679, a: 0}
    - _METAL2COLOR1: {r: 0.4674706, g: 0.4677705, b: 0.5188679, a: 0}
    - _METAL3COLOR: {r: 0.4383232, g: 0.4383232, b: 0.4716981, a: 0}
    - _METAL3COLOR1: {r: 0.4383232, g: 0.4383232, b: 0.4716981, a: 0}
    - _METAL4COLOR: {r: 0, g: 0, b: 0, a: 0}
    - _METAL4COLOR1: {r: 0.4383232, g: 0.4383232, b: 0.4716981, a: 0}
    - _OTHERCOLOR: {r: 0.6509434, g: 0.29783732, b: 0.29783732, a: 0}
    - _OTHERCOLOR1: {r: 0.5188679, g: 0.4637216, b: 0.3206212, a: 0}
    - _SCLERACOLOR: {r: 0.9056604, g: 0.8159487, b: 0.8159487, a: 0}
    - _SCLERACOLOR1: {r: 0.9056604, g: 0.8159487, b: 0.8159487, a: 0}
    - _SKINCOLOR: {r: 0.9433962, g: 0.59623396, b: 0.38714847, a: 0}
    - _SKINCOLOR1: {r: 2.02193, g: 1.0081, b: 0.6199315, a: 0}
